"Id","SalePrice"
1461,120740.104999599
1462,150361.071273691
1463,170974.105962288
1464,194821.850959076
1465,205052.767975147
1466,169478.550036222
1467,188138.686280063
1468,164232.014547229
1469,197646.714343477
1470,123797.753653036
1471,181025.92210391
1472,104292.948008941
1473,96281.5788332728
1474,145629.64533782
1475,117124.146155526
1476,358238.854590886
1477,244055.563442316
1478,293004.878676072
1479,303929.208651967
1480,477954.49899655
1481,328012.404726167
1482,217796.323808132
1483,167796.142646146
1484,168017.160292702
1485,198018.895404669
1486,190193.309260542
1487,338164.508222119
1488,209430.541714883
1489,188419.83276683
1490,234741.405811173
1491,191677.831720335
1492,89199.1461663026
1493,188277.562584517
1494,292111.766458132
1495,280413.402873492
1496,235492.897201731
1497,175799.109464991
1498,172533.911754631
1499,162276.736766911
1500,155355.675679461
1501,175031.933809542
1502,162618.572967711
1503,272477.694438399
1504,252357.063819496
1505,228759.905014718
1506,183648.621972122
1507,246994.57060264
1508,198244.986470211
1509,162327.380347507
1510,143880.396571107
1511,149758.280936048
1512,176163.053837251
1513,158129.770247499
1514,143215.055589769
1515,194606.753368732
1516,152376.142464283
1517,168631.562859603
1518,124044.905828095
1519,204600.524649899
1520,127213.581107997
1521,123741.177383283
1522,182294.341691512
1523,111094.643677532
1524,122256.660804785
1525,120743.851034842
1526,112788.936420118
1527,109561.19565158
1528,145056.313656776
1529,153778.609054242
1530,205988.799342214
1531,121211.745950676
1532,105844.730668926
1533,130901.940668172
1534,120989.394368596
1535,130125.024064915
1536,104850.533729112
1537,60929.7074127481
1538,140690.169172659
1539,189063.924557254
1540,92362.2893873254
1541,126807.428341236
1542,128292.649866551
1543,155861.646401342
1544,86247.6713471548
1545,118386.534941193
1546,139054.386553945
1547,126268.952558625
1548,142012.698600314
1549,127998.332724069
1550,131716.594028834
1551,106282.077005045
1552,141571.242408215
1553,137067.595492916
1554,116011.980885878
1555,143016.975376263
1556,88206.6983503971
1557,101012.632628287
1558,100245.548492803
1559,66412.790144856
1560,147550.33538094
1561,112533.704787572
1562,134501.781706549
1563,119694.253985879
1564,150410.815877901
1565,144051.821214013
1566,221641.226581195
1567,79780.1507772059
1568,226980.066793088
1569,120754.237232879
1570,144538.596892347
1571,113715.48293305
1572,135419.193914101
1573,216235.660529116
1574,122451.949027578
1575,216733.110377582
1576,246810.081873642
1577,178575.055940659
1578,153260.019265955
1579,136122.172531006
1580,198099.072319823
1581,159192.214937008
1582,133859.779637351
1583,273927.125432683
1584,218507.520288397
1585,141392.521353567
1586,65654.2764308888
1587,104241.806917637
1588,153823.798901803
1589,95051.9973232564
1590,129293.336635137
1591,91628.2917564569
1592,105277.953850942
1593,139023.448887814
1594,137511.080523324
1595,108768.405804055
1596,217325.713843432
1597,195586.985385965
1598,236071.98632693
1599,169740.272927201
1600,158744.691690146
1601,75205.1178293686
1602,117291.189928269
1603,70440.8717307377
1604,254863.066678984
1605,238869.206452863
1606,166546.968565164
1607,168309.05313977
1608,214550.514409399
1609,177017.59747253
1610,150329.533885721
1611,135858.916697929
1612,168565.898533913
1613,165900.194783994
1614,120830.409852209
1615,87083.3816008125
1616,76119.2955056313
1617,92301.5707868681
1618,126420.349041052
1619,151297.309146232
1620,162488.228689231
1621,132253.543713841
1622,146855.871209472
1623,252598.770686306
1624,194900.964166718
1625,119364.614295756
1626,172242.49521649
1627,187160.166807704
1628,279270.959723987
1629,184831.742441182
1630,346173.717453727
1631,230750.298900766
1632,238669.597581376
1633,183883.103230432
1634,185474.606316114
1635,175892.8063396
1636,158541.406302318
1637,199369.422711169
1638,172016.527095502
1639,191164.305679148
1640,249839.139524563
1641,177136.720603419
1642,254405.197226819
1643,210950.317829017
1644,238747.583731922
1645,210803.297165511
1646,168599.960439646
1647,159762.472628823
1648,132549.621682995
1649,148750.690883148
1650,118295.993105815
1651,125866.095156097
1652,102459.49047169
1653,106586.048902478
1654,150495.938003377
1655,136050.188377341
1656,139481.803102775
1657,151064.655097953
1658,149896.785641652
1659,126909.34448361
1660,153302.008264163
1661,398523.020210006
1662,402313.535795622
1663,359545.293562452
1664,486792.786135071
1665,308155.7255533
1666,322438.255993634
1667,392932.990753793
1668,353118.108648965
1669,316480.261256886
1670,337612.222467341
1671,254331.532748545
1672,411789.639302105
1673,299091.329656471
1674,240505.747216668
1675,196278.59315436
1676,188741.3680096
1677,214152.388323575
1678,434507.450035875
1679,391416.337607437
1680,307440.208815085
1681,246872.224765718
1682,322640.254428212
1683,194108.411693107
1684,183306.178156932
1685,176314.500162965
1686,173938.359200165
1687,181256.703476266
1688,185046.433929249
1689,195719.655737392
1690,200012.704644824
1691,192917.81058652
1692,257363.860455357
1693,180808.048272744
1694,186867.572667668
1695,178489.187994445
1696,262143.111209036
1697,183010.118184045
1698,339149.848049882
1699,308767.921355652
1700,257590.738112294
1701,267026.455997212
1702,225815.428650404
1703,234149.904164658
1704,268449.177817089
1705,244882.937163008
1706,388062.101235324
1707,211252.913443211
1708,201643.473806837
1709,260352.241574491
1710,222480.574804706
1711,281584.080485488
1712,248183.892880523
1713,275846.625498585
1714,221741.166210993
1715,212260.860652278
1716,172113.60049881
1717,179957.351622508
1718,133397.601285698
1719,205293.673807026
1720,234752.542592125
1721,155375.77047833
1722,119911.332719527
1723,149213.655479801
1724,197145.423424254
1725,237122.182044803
1726,182977.119190965
1727,143815.140804033
1728,177286.421819778
1729,169196.575840498
1730,158103.990427339
1731,118875.464169926
1732,123830.641780727
1733,115194.556620501
1734,126124.607809182
1735,131842.835382306
1736,108404.063832659
1737,272346.065524378
1738,253059.217496057
1739,239745.322110108
1740,202954.220686226
1741,183971.452112318
1742,172111.720833694
1743,184136.268388172
1744,294747.516407909
1745,215136.887974615
1746,185519.253369482
1747,205093.685128553
1748,217095.968665515
1749,145274.593823589
1750,119319.941971389
1751,247087.741553615
1752,119249.146041502
1753,148364.8825372
1754,195652.316569238
1755,150756.270156847
1756,131912.219262249
1757,123257.79685996
1758,150022.955774105
1759,152790.142424477
1760,161258.8399833
1761,140322.57264854
1762,179739.88993363
1763,179875.840543134
1764,119563.611997388
1765,156989.075829197
1766,192376.411429836
1767,212457.64083935
1768,141279.156130984
1769,171296.559408811
1770,158037.952733023
1771,126027.555597757
1772,131071.819810429
1773,129871.322734108
1774,141070.919230561
1775,147471.535524538
1776,132005.25188157
1777,110245.93466946
1778,140454.919141534
1779,121278.116867797
1780,179230.249856659
1781,127950.63271191
1782,86276.6646796799
1783,132007.359145134
1784,101091.301193167
1785,121647.636230406
1786,147967.811655023
1787,153692.803613065
1788,67773.8941207538
1789,97680.1017478144
1790,80718.8564818354
1791,189229.623116156
1792,158070.608579069
1793,130117.486263243
1794,161664.239218072
1795,127323.171183888
1796,141936.97484274
1797,115855.708455108
1798,129156.975133255
1799,110254.039100729
1800,139391.331982522
1801,120963.653860378
1802,142183.831528322
1803,146946.934425353
1804,136593.98497798
1805,139485.877846813
1806,127322.613321647
1807,133771.968901779
1808,120342.516818686
1809,119683.648538991
1810,131945.210473092
1811,86159.6530037727
1812,91776.3737325987
1813,120988.434954254
1814,98571.1742943505
1815,58643.8142233377
1816,106630.607074495
1817,97620.6669234566
1818,130562.389900971
1819,129683.464339281
1820,55218.044647538
1821,117218.141785486
1822,149664.330701277
1823,43689.7263724702
1824,115708.305825096
1825,148496.89590185
1826,107064.195199096
1827,96595.8999106082
1828,127440.124590576
1829,129964.971046521
1830,131972.549753253
1831,138077.532096834
1832,69016.4973608114
1833,145137.77725874
1834,109476.971321295
1835,106409.813694454
1836,110347.334285612
1837,94243.0786682035
1838,118672.507689586
1839,113579.733782096
1840,139409.694996796
1841,134801.183390398
1842,94294.1400748781
1843,122954.161008173
1844,151603.278047064
1845,145599.859951645
1846,155190.85729775
1847,163071.655848268
1848,59382.6443901018
1849,102229.191169401
1850,113733.45742822
1851,130699.723057896
1852,139448.129307272
1853,116785.098236983
1854,151584.861314659
1855,152482.560695813
1856,223228.576871686
1857,115120.709629655
1858,127958.659091428
1859,115512.255199464
1860,140345.501935495
1861,114955.66126211
1862,347958.49605165
1863,324164.401910251
1864,324176.524941422
1865,328136.654592742
1866,323301.931552879
1867,218014.770153533
1868,257953.563424316
1869,202249.802324568
1870,215474.387339849
1871,255960.493857048
1872,173998.589135002
1873,216705.938489649
1874,149508.951084712
1875,189625.258025717
1876,200030.331728374
1877,196442.173359385
1878,206989.098321889
1879,125233.550201336
1880,133654.973252538
1881,224394.510191755
1882,229726.961168351
1883,180227.608207387
1884,191752.026669894
1885,218170.098476383
1886,264969.814732503
1887,212191.044737342
1888,256911.02032685
1889,165202.030585191
1890,105025.635781634
1891,130458.427444418
1892,96755.3315086883
1893,118052.461868584
1894,112903.647159485
1895,119896.870904255
1896,122917.394996076
1897,119341.22813353
1898,101492.798627863
1899,173443.850848752
1900,160335.867676725
1901,182380.724541576
1902,154223.402934948
1903,248894.398822788
1904,157367.03863337
1905,196466.794168874
1906,161520.187729434
1907,178264.26957509
1908,113258.651199066
1909,143348.563060524
1910,124276.146751647
1911,229525.91142474
1912,309569.399013743
1913,132801.645298286
1914,57018.3629091322
1915,288189.322767545
1916,43935.3911940661
1917,222431.718075344
1918,143351.568109822
1919,168234.210654776
1920,151897.096149858
1921,339519.743254079
1922,296322.694831625
1923,238099.91579761
1924,211493.317351058
1925,190257.31260079
1926,340917.267701086
1927,126774.705087199
1928,152726.605266083
1929,116714.945769077
1930,131071.701402158
1931,138730.488418976
1932,134383.918151188
1933,180569.841383789
1934,178066.350777907
1935,169618.812475937
1936,191721.298654414
1937,184571.15460415
1938,164378.969039372
1939,235190.892836224
1940,199487.208986651
1941,170144.793297709
1942,176506.767258575
1943,230440.108121676
1944,401889.834913262
1945,405416.472668705
1946,125413.00746462
1947,301706.689766642
1948,164796.876219818
1949,237210.23173584
1950,191209.268941696
1951,223090.48230082
1952,198243.950080276
1953,163934.079167944
1954,178136.87363343
1955,135230.01243669
1956,313116.832326351
1957,149321.202561561
1958,287357.177752932
1959,147158.869458919
1960,119315.733061105
1961,126977.100735698
1962,98234.6411542895
1963,106466.2518213
1964,104076.5943202
1965,149031.446146086
1966,136892.570780597
1967,284365.29582103
1968,410765.931739413
1969,374082.102418812
1970,402516.57953248
1971,478770.046381277
1972,367885.446806646
1973,285723.114062573
1974,342378.577810179
1975,486301.632625311
1976,275404.074872408
1977,356544.60491958
1978,349451.772795073
1979,308322.290631502
1980,199779.543951778
1981,319324.126493914
1982,217877.936960337
1983,208321.986275298
1984,171023.919813418
1985,229201.081294616
1986,204032.674669277
1987,196601.772395893
1988,174787.273574816
1989,187822.109999467
1990,204792.16068676
1991,229121.942588474
1992,213497.700260476
1993,174232.224130557
1994,224223.820334528
1995,181103.87972078
1996,250509.095050004
1997,309121.803064953
1998,282119.0970125
1999,294288.455881903
2000,331440.537199424
2001,287961.247190857
2002,243557.407894904
2003,244210.468656752
2004,284608.242132883
2005,215427.544993485
2006,223089.979568198
2007,250268.121604105
2008,213132.580567735
2009,195161.603532558
2010,191312.558011577
2011,136022.044853701
2012,170986.923026646
2013,171273.405301246
2014,175076.577742154
2015,206413.842653547
2016,186506.644019075
2017,181776.727283413
2018,122857.381698516
2019,132583.316225382
2020,99283.5255357603
2021,110734.968207827
2022,169511.288495991
2023,132567.086199805
2024,285568.606132559
2025,381452.357830609
2026,178132.302996908
2027,164213.965655044
2028,151214.708520626
2029,163279.123260551
2030,258600.144752656
2031,235885.756843233
2032,253411.560398773
2033,250492.992020018
2034,177417.753831514
2035,225487.751359409
2036,195047.981261321
2037,202686.262486326
2038,345200.257047101
2039,235913.136819611
2040,282864.602852168
2041,281882.137629937
2042,214131.290777404
2043,169071.203281656
2044,179452.195469802
2045,207372.870299882
2046,146726.157553235
2047,137522.633914414
2048,144180.085066321
2049,137888.040098656
2050,166634.346335375
2051,108411.1702906
2052,125672.818584195
2053,149847.481518371
2054,91961.1266956546
2055,146917.813759518
2056,152542.768211663
2057,112639.333981721
2058,199285.151832712
2059,130979.925319994
2060,169325.220761385
2061,170123.440259725
2062,123474.654006009
2063,123692.018055792
2064,133700.213634816
2065,124511.218523892
2066,162938.877130044
2067,113892.826639163
2068,139869.845949686
2069,79737.4314750797
2070,111668.243248298
2071,100879.153931225
2072,133672.214912758
2073,131727.1941343
2074,181937.143006531
2075,147728.135122514
2076,121233.028104642
2077,155126.456395453
2078,129524.203040686
2079,138052.90672925
2080,116182.041578049
2081,127512.864809519
2082,113146.857326618
2083,144440.040518718
2084,113031.263666275
2085,115869.606722018
2086,103877.024976007
2087,117386.583037449
2088,88409.3928039206
2089,84891.0583257793
2090,120947.293261593
2091,106660.904520992
2092,113335.136285548
2093,104439.093340106
2094,110089.390261934
2095,146227.281038845
2096,83136.0928369924
2097,100615.442966729
2098,141522.974134547
2099,57829.6467986107
2100,72159.5714751632
2101,101109.066355556
2102,122798.904103033
2103,107575.343345691
2104,142424.392670048
2105,120055.237348249
2106,56793.1359350972
2107,195496.290028046
2108,113905.454085206
2109,103900.709536375
2110,109741.633326517
2111,134653.422853495
2112,132287.165361084
2113,116055.197449053
2114,108737.336790124
2115,156231.030469889
2116,117987.695117207
2117,140777.054275124
2118,128876.793083187
2119,102800.484154305
2120,113130.685125614
2121,88576.8898864329
2122,117585.330276382
2123,87560.482256087
2124,161026.053325493
2125,116152.981063713
2126,136569.078579293
2127,181540.695886782
2128,124787.162029465
2129,94738.2101663051
2130,124182.498812184
2131,135806.799814128
2132,107470.606623696
2133,120894.010534672
2134,133396.902507292
2135,104435.967638519
2136,77338.425441757
2137,96687.2071172849
2138,119455.533890187
2139,148678.967814237
2140,139131.176833755
2141,173558.539561939
2142,123456.275463582
2143,149848.365287387
2144,125962.159969317
2145,136091.400991242
2146,170656.475613474
2147,119915.722636517
2148,140460.787532038
2149,148285.929230924
2150,228693.702081367
2151,128035.846934962
2152,151238.330039476
2153,167562.869137164
2154,93961.7824179952
2155,128800.67401919
2156,248133.013954943
2157,218983.043570131
2158,246483.031440579
2159,216283.798179043
2160,177878.872207924
2161,226697.744142768
2162,344155.672611759
2163,307347.873074469
2164,248858.836173542
2165,205623.640980326
2166,159324.925107381
2167,214909.977806339
2168,175179.551419315
2169,187326.88095617
2170,204863.756564419
2171,162157.033281808
2172,130371.666161179
2173,187832.304030551
2174,210899.660117716
2175,271038.707915966
2176,304748.627034896
2177,236401.819436006
2178,207329.251689379
2179,138787.025385758
2180,202126.012012708
2181,188368.111612977
2182,211955.491450775
2183,185955.003224126
2184,114808.585730762
2185,124018.427934544
2186,140081.241006868
2187,154877.77620644
2188,152913.614403026
2189,297024.042833746
2190,76249.9191888203
2191,73155.7964954767
2192,84906.6482192742
2193,114878.148189867
2194,96277.229987227
2195,94881.2367653828
2196,94207.4194357832
2197,122559.887188947
2198,160653.388552186
2199,194426.768770693
2200,145782.328990187
2201,158785.724855322
2202,219839.292197715
2203,136797.193484161
2204,179009.47649706
2205,117605.520006327
2206,136124.10699547
2207,230468.035973586
2208,269551.758201612
2209,249084.64059101
2210,123816.93796641
2211,121288.999004725
2212,121173.202407317
2213,108044.834210051
2214,131783.384266142
2215,102220.075662762
2216,139367.260898258
2217,41780.5788004906
2218,61090.4263627717
2219,64626.6212447897
2220,59551.1979857269
2221,287290.100883632
2222,272987.490006985
2223,274428.503202901
2224,212871.708692306
2225,119948.323431813
2226,171135.00910115
2227,189042.684117243
2228,259425.863212146
2229,231612.376204924
2230,151790.336113444
2231,199587.15511623
2232,183313.653179855
2233,170727.009859867
2234,232645.81939466
2235,206736.456160151
2236,233999.270301251
2237,280311.134495409
2238,208228.43449821
2239,103952.092072989
2240,152411.218906983
2241,140950.39344813
2242,111879.682680075
2243,122028.412441778
2244,94134.3876995103
2245,97429.6197683246
2246,134492.403639425
2247,109080.494729498
2248,125710.573951241
2249,118795.871789723
2250,127439.346770851
2251,69960.7458323982
2252,173871.102319528
2253,161241.657928032
2254,188307.869002768
2255,180894.949450686
2256,169186.608987127
2257,213759.51745585
2258,155557.290710495
2259,176915.126259931
2260,154856.499575014
2261,215926.892679766
2262,222140.902490574
2263,399434.205185015
2264,451973.262431978
2265,180020.402514998
2266,308263.489306506
2267,354894.126028319
2268,439002.23394082
2269,155355.18059779
2270,194416.260724262
2271,201838.875997715
2272,189060.424762053
2273,161268.657551518
2274,177879.513270455
2275,141769.519998369
2276,183585.244256396
2277,173023.915205923
2278,152106.264854832
2279,128023.193860594
2280,108248.124653024
2281,165101.377033881
2282,181325.767860969
2283,107106.606188133
2284,110857.490467665
2285,135456.321763887
2286,121482.686254623
2287,374238.715477443
2288,274166.282539023
2289,349527.565153405
2290,442349.803059419
2291,347855.953757708
2292,437607.324632243
2293,447826.276980961
2294,414357.445899073
2295,482993.823570787
2296,252561.462204054
2297,360636.789160024
2298,338870.127272246
2299,359909.920870985
2300,328329.837454014
2301,325625.267866592
2302,250640.200384818
2303,250835.773433609
2304,239335.641369241
2305,190455.177383617
2306,184219.58882012
2307,204091.115387744
2308,220488.97991489
2309,273937.494860337
2310,213692.247013085
2311,209975.270180494
2312,170539.671363787
2313,170776.060489564
2314,169120.153759185
2315,179400.575202991
2316,201407.598210215
2317,185273.703044469
2318,174377.849738226
2319,180934.00723087
2320,183631.970693386
2321,240786.534629395
2322,187660.355104963
2323,196358.200829951
2324,198607.188762785
2325,205322.246345181
2326,180165.701311045
2327,196685.243327749
2328,213330.196231419
2329,193182.568793894
2330,184568.667498749
2331,316763.457963664
2332,419910.45224756
2333,322592.835012313
2334,254104.27528197
2335,291156.890270181
2336,288806.881997464
2337,187998.672180709
2338,246311.512942468
2339,228086.948335734
2340,359659.439300586
2341,214350.347071041
2342,235812.569245626
2343,231460.004699272
2344,229037.394942914
2345,222295.045256274
2346,215799.870300812
2347,196039.145421175
2348,244603.673595502
2349,161445.473852221
2350,320752.799168767
2351,246042.127812457
2352,242980.676088896
2353,248900.50244349
2354,137849.047242729
2355,139771.920511411
2356,142498.462565149
2357,181237.011079171
2358,192237.809657087
2359,129382.155800634
2360,123386.615095984
2361,143413.74564931
2362,224613.301467074
2363,143382.155112567
2364,161255.65974911
2365,220065.65194142
2366,198989.301815958
2367,217852.936021076
2368,213630.124303034
2369,213074.133635376
2370,166930.591937921
2371,156893.237579953
2372,190787.87577421
2373,280548.799870107
2374,305978.74615104
2375,251679.639225293
2376,257017.736532394
2377,303328.945242649
2378,158909.863499765
2379,196845.598950443
2380,145387.593131089
2381,165575.559973865
2382,216747.596268955
2383,197577.004506089
2384,237555.802512483
2385,166694.965148638
2386,133366.170960926
2387,128140.629614329
2388,103858.053940275
2389,116984.138355949
2390,155487.137442103
2391,143675.126132345
2392,114981.896747984
2393,170995.37097213
2394,142910.877664468
2395,210276.289518992
2396,144383.829252863
2397,199474.056843151
2398,141835.30708665
2399,71013.836099294
2400,75870.5116131261
2401,133407.839479843
2402,135452.767581553
2403,140260.359835267
2404,147490.253113709
2405,155724.778490125
2406,136907.364338392
2407,122166.197538211
2408,149396.261193757
2409,112646.110516124
2410,163157.327741501
2411,118236.943848967
2412,153731.286587314
2413,125635.650307986
2414,152993.221962952
2415,129216.965353709
2416,129017.683534579
2417,133423.49951096
2418,132940.887847813
2419,123665.822919912
2420,120956.154667882
2421,134623.932245267
2422,100644.439703366
2423,104773.00568363
2424,166171.256077186
2425,197639.387161995
2426,119855.947948806
2427,122563.389977862
2428,177107.067451725
2429,115957.935297113
2430,135749.187667923
2431,114599.770543679
2432,154410.688440806
2433,152267.121816296
2434,144628.772702911
2435,151663.077769177
2436,110614.027204903
2437,99097.0231396284
2438,123538.744136201
2439,92145.2084739732
2440,122699.558082832
2441,94010.7232111744
2442,95566.4125219197
2443,127064.690278046
2444,130553.273553431
2445,88218.5960602128
2446,129304.146788989
2447,154042.339531649
2448,119264.088888279
2449,112144.288291438
2450,155002.420299948
2451,113783.274362394
2452,191915.585752755
2453,88724.9348789238
2454,107047.462827076
2455,104035.458564658
2456,119470.83506064
2457,131851.593289701
2458,131710.258790843
2459,107134.27196174
2460,143579.043694544
2461,131296.604734364
2462,124388.104477553
2463,123193.145283628
2464,157364.820509621
2465,133443.53677274
2466,121585.496847603
2467,123523.082417001
2468,90579.3322921154
2469,83183.3424896832
2470,188643.292095177
2471,200124.882985455
2472,159415.829125778
2473,116424.63207338
2474,72589.5174810911
2475,193597.071395566
2476,114535.199374277
2477,119579.063697072
2478,143605.565332639
2479,102192.786984157
2480,145065.277839682
2481,115044.525023193
2482,124784.464016572
2483,109521.031219804
2484,119153.642541734
2485,124144.100603947
2486,133859.074256085
2487,161934.100378374
2488,170223.534997249
2489,155696.261488432
2490,134372.221013867
2491,94659.2920617132
2492,189371.179530227
2493,148025.642671143
2494,132864.281480274
2495,79977.2254399058
2496,228448.812062069
2497,146644.403309135
2498,112724.635598935
2499,81960.6851165002
2500,110826.389967978
2501,128295.323027402
2502,134525.64226088
2503,94434.4430044025
2504,188290.407324942
2505,220558.503236514
2506,236297.13320833
2507,262106.000278468
2508,236292.115978002
2509,211718.930064827
2510,210591.864258187
2511,169899.495332431
2512,205059.752095472
2513,213589.87116426
2514,254899.873475419
2515,148272.404483441
2516,174181.884112738
2517,152520.32098728
2518,160140.662975545
2519,243250.921569828
2520,223667.114577714
2521,180119.127609964
2522,214553.159884858
2523,116379.96962664
2524,133648.902174211
2525,144449.961656649
2526,138621.118739567
2527,119777.412488436
2528,129899.090541048
2529,136877.332659221
2530,132452.155172355
2531,241802.44910793
2532,215224.612192939
2533,189778.193024306
2534,223306.656476357
2535,264069.08546772
2536,222182.971323142
2537,243003.680376866
2538,179373.519736841
2539,185221.846229601
2540,175542.41106379
2541,176776.400429343
2542,158521.055625306
2543,115787.154236534
2544,112035.436129887
2545,127418.231766628
2546,118141.204473616
2547,136084.025712382
2548,152465.712431477
2549,144824.388844434
2550,775755.381863269
2551,136704.847372183
2552,126984.968836102
2553,68715.4017079866
2554,87847.7895167728
2555,113004.94700232
2556,98423.0156091447
2557,112213.926451663
2558,160257.402588159
2559,143518.491787211
2560,172824.290472818
2561,160869.566672325
2562,139053.102511834
2563,153504.089979697
2564,214315.046868812
2565,151349.073326919
2566,150580.958889313
2567,156060.944757103
2568,205373.560884593
2569,232260.701926239
2570,115206.81859985
2571,188992.166721018
2572,143583.178021047
2573,204944.936871544
2574,305975.50960021
2575,126485.966794077
2576,108321.373993969
2577,140792.684703307
2578,90000.324476256
2579,64358.3939524966
2580,72281.8551339792
2581,82169.2351725703
2582,91066.1022362314
2583,258780.876320027
2584,157956.7598448
2585,178906.109412154
2586,202124.288586185
2587,192025.064677972
2588,135030.2898541
2589,149406.944723577
2590,187112.628510718
2591,222673.00922926
2592,197954.16403372
2593,235460.698425497
2594,179448.470111281
2595,201704.827151047
2596,258604.663752153
2597,182603.939227813
2598,283997.048602416
2599,314925.081913803
2600,135853.848134353
2601,144669.060973231
2602,78902.0005842879
2603,85169.4041565314
2604,85304.3400351693
2605,79118.7128758644
2606,137728.917253375
2607,220277.583761454
2608,178835.435486286
2609,178472.879221929
2610,110147.51799539
2611,106668.519142463
2612,164402.26753531
2613,130768.769818059
2614,121642.792801543
2615,152883.164144532
2616,146288.280787125
2617,173119.340511174
2618,181333.109027254
2619,182629.521637876
2620,187828.877274575
2621,173014.83523437
2622,171470.205730747
2623,225150.809090705
2624,295327.205787717
2625,271537.687412056
2626,172000.654954226
2627,174139.76052107
2628,509100.186808969
2629,569827.679097244
2630,423722.465447525
2631,495127.741765528
2632,429845.27771521
2633,304249.298792122
2634,439877.524055943
2635,153704.445736681
2636,171963.689605707
2637,181457.288262991
2638,260926.577902912
2639,191712.204625626
2640,150731.813648545
2641,106700.063919229
2642,179871.056657391
2643,108560.567219422
2644,117240.431732675
2645,111018.306583069
2646,95977.1046431663
2647,104563.542086416
2648,138584.804332456
2649,161096.182148523
2650,131006.535161331
2651,137784.164034066
2652,394468.978443665
2653,245501.84348544
2654,251266.507844198
2655,389144.449478269
2656,326594.656766748
2657,338694.369801035
2658,308075.536669328
2659,326643.316224081
2660,362607.758139257
2661,344240.507511031
2662,355838.825375776
2663,278413.389399569
2664,271342.362191744
2665,330419.092790152
2666,271183.557702978
2667,175916.99977775
2668,180514.136255929
2669,174818.433551229
2670,263365.72070064
2671,184316.795872789
2672,195137.559610408
2673,191295.61778162
2674,188964.595957516
2675,181844.722484531
2676,189451.183064422
2677,197616.042044294
2678,245379.173954217
2679,270717.879720805
2680,279742.48732856
2681,405979.6671265
2682,324032.135290274
2683,587511.050368458
2684,321557.612054154
2685,328101.450918783
2686,236525.761103497
2687,302577.944053046
2688,204016.003254905
2689,208829.46719523
2690,387385.144470615
2691,188730.282864169
2692,138035.176623001
2693,187771.898119137
2694,130186.176954428
2695,186215.553516181
2696,178624.542995002
2697,177622.962626157
2698,207784.094189019
2699,157534.149885072
2700,144986.047745383
2701,149353.870056552
2702,117959.556327652
2703,128641.320770608
2704,129454.507568238
2705,110788.813199593
2706,115547.420378577
2707,124154.094478421
2708,128299.039817882
2709,100614.117972201
2710,129600.975985312
2711,230556.830613902
2712,383952.561557993
2713,170386.983802771
2714,147902.60356658
2715,163364.287877894
2716,154443.031462386
2717,189170.803075665
2718,214680.559171882
2719,154003.51719821
2720,181558.49035364
2721,125088.247132581
2722,160594.534076634
2723,136461.94402421
2724,124413.010354363
2725,127664.120934801
2726,139483.536112922
2727,171290.617577826
2728,185423.624643198
2729,147396.385894595
2730,144726.494166874
2731,143394.361743715
2732,137198.497489145
2733,156941.404026359
2734,138448.70236272
2735,129032.263816465
2736,129452.213807759
2737,118517.509169898
2738,131800.853309165
2739,144271.906561877
2740,135703.35673462
2741,139376.07310041
2742,154079.113156026
2743,148873.508630112
2744,163510.240589239
2745,140243.240932695
2746,130151.711932806
2747,153388.96756345
2748,131875.404198002
2749,135155.65973435
2750,114819.855483325
2751,133406.437493622
2752,198371.545736127
2753,134078.060931347
2754,207513.718575666
2755,138925.244935641
2756,98350.2872095461
2757,72826.846768092
2758,93412.067206823
2759,157110.519706485
2760,109764.912624331
2761,132618.446344122
2762,129869.445305142
2763,180126.817824379
2764,137881.651036077
2765,292150.514394189
2766,122441.823489748
2767,89474.8615789817
2768,124542.945162917
2769,132424.4222103
2770,139453.051889227
2771,109166.069501436
2772,105912.766655963
2773,151358.419393861
2774,131072.960672739
2775,111966.635004233
2776,138706.702957176
2777,142187.605432691
2778,103742.806797178
2779,116811.469392202
2780,92262.9544565798
2781,97966.6308750646
2782,99327.4071409128
2783,92279.7837019607
2784,122172.019457825
2785,138531.733579545
2786,75239.8897477735
2787,117081.347289723
2788,80759.1857804439
2789,154496.79947668
2790,95852.6856851389
2791,106164.303483687
2792,48982.6722011662
2793,131759.980638664
2794,95933.4454097729
2795,108780.904719438
2796,97062.8819816175
2797,190848.552357805
2798,105515.331139864
2799,107208.089201545
2800,70281.4723889641
2801,114190.030267457
2802,119244.530738476
2803,152410.842425765
2804,126635.632117759
2805,96628.3055674629
2806,88021.908746513
2807,160256.232951265
2808,143061.039102401
2809,122096.400188624
2810,121753.598052324
2811,158904.966446858
2812,171627.179776291
2813,152699.071248204
2814,153388.709306317
2815,91580.0269711739
2816,206008.678635859
2817,156032.526145402
2818,126733.49396198
2819,171982.561033857
2820,128181.012801226
2821,104262.26554851
2822,182526.376441266
2823,311437.954469824
2824,157891.957808489
2825,141159.122274806
2826,123410.966184876
2827,126123.063497202
2828,199685.474807469
2829,220941.168798639
2830,211470.591878639
2831,167827.795795566
2832,211455.94225864
2833,291369.341716387
2834,214993.97351541
2835,219853.165121192
2836,180926.077026904
2837,155985.782742367
2838,144275.58931509
2839,162597.627124344
2840,197751.321913315
2841,191870.973708603
2842,216359.499173353
2843,146422.495409189
2844,162785.946125574
2845,130006.504245546
2846,194819.834490624
2847,219454.574644024
2848,202221.536742972
2849,186968.410090226
2850,269285.048542046
2851,205926.31194168
2852,228019.890068385
2853,223649.919303795
2854,139571.886528844
2855,191830.716753168
2856,192650.030590095
2857,181265.913863705
2858,200826.392212696
2859,92943.6502093994
2860,123911.985423976
2861,111673.439487561
2862,172356.82661069
2863,123834.639714418
2864,216414.707766472
2865,136748.108378048
2866,125277.249200426
2867,101984.282631147
2868,92372.7214637055
2869,89761.3341271353
2870,108782.573768238
2871,83262.3023335899
2872,54803.8780299092
2873,91827.6043621816
2874,123021.97306993
2875,107747.346039034
2876,157635.091551086
2877,143611.58361359
2878,152303.923991267
2879,122955.780695803
2880,102860.762621189
2881,154400.50439662
2882,180314.150417356
2883,193616.781836679
2884,203947.280767826
2885,185916.574280288
2886,225462.555576214
2887,99602.2901165731
2888,140801.370707262
2889,63081.6747189945
2890,85814.8149030008
2891,125660.873633223
2892,39768.2190591227
2893,65535.9517596789
2894,50846.5464931992
2895,319060.553966932
2896,268635.270741022
2897,193120.238285158
2898,147224.697298251
2899,194950.795146645
2900,152599.109859031
2901,198337.33012401
2902,167947.87040402
2903,292973.004366207
2904,326437.546936479
2905,51535.434662714
2906,201076.580025791
2907,105395.603049469
2908,132356.130082784
2909,145835.4109392
2910,74762.4523738353
2911,82971.9590867022
2912,143706.796781285
2913,74619.9763121201
2914,71960.9858443267
2915,78207.2653595544
2916,79894.4392965574
2917,156141.525783498
2918,110977.392730938
2919,222737.547535574
