"Id","SalePrice"
1461,121498.691832645
1462,165404.386564159
1463,184915.713258947
1464,187092.332609969
1465,178447.190677235
1466,175118.469805879
1467,172308.948963425
1468,167962.761258753
1469,187318.681362113
1470,130367.432423878
1471,190157.799258465
1472,94441.788994852
1473,98881.2110374205
1474,156951.502737359
1475,132924.715519516
1476,361310.469468775
1477,257252.886601225
1478,231540.498749523
1479,288093.943764807
1480,408722.604111477
1481,330925.820404424
1482,201837.587738193
1483,182344.865014933
1484,165061.173108649
1485,176934.756011587
1486,196694.236680319
1487,314540.313404855
1488,233999.601771026
1489,196009.683260875
1490,224215.051456821
1491,187891.731673244
1492,96997.3765746284
1493,195938.1692947
1494,280830.66798636
1495,305743.751066169
1496,238693.206606465
1497,196424.844932915
1498,162349.169623882
1499,157378.645402605
1500,154724.826019065
1501,169328.763107416
1502,157799.057519098
1503,257383.300906845
1504,237015.131322136
1505,228628.953083148
1506,193099.301421145
1507,250732.889888795
1508,201070.824539563
1509,166881.360653696
1510,143301.609288181
1511,146651.246370803
1512,170579.494256636
1513,128742.09925852
1514,152405.978453469
1515,208180.814552145
1516,150804.280949286
1517,163319.115825514
1518,125542.075884136
1519,210817.426723921
1520,130185.900467665
1521,136236.399096081
1522,172093.246334753
1523,118961.071356185
1524,126672.802868017
1525,127067.420571375
1526,127419.502647124
1527,111328.964189941
1528,140292.500540509
1529,138869.893412429
1530,191397.897170662
1531,126530.518802464
1532,103967.341015602
1533,149021.023473218
1534,114312.236898124
1535,146882.239875787
1536,98984.6357325207
1537,86788.7195451902
1538,154071.4764899
1539,184189.823550282
1540,103875.145203053
1541,140109.764659662
1542,148448.763106424
1543,202368.098563945
1544,92056.3874729873
1545,124872.55666249
1546,138143.945797302
1547,140007.688690647
1548,137009.420976922
1549,123933.794723982
1550,140481.44608244
1551,115145.724976224
1552,136296.966278321
1553,131102.334205686
1554,122763.282303889
1555,175489.671723059
1556,92679.6738011597
1557,111982.046668494
1558,105466.696706554
1559,86984.8994811537
1560,144917.191467549
1561,144535.150955219
1562,122006.652411157
1563,112611.605320261
1564,152115.821761278
1565,150946.440812342
1566,251049.948533542
1567,77788.9002122629
1568,228397.575863821
1569,119938.730967081
1570,134430.600018725
1571,119969.663978211
1572,142182.106356315
1573,245025.031056528
1574,110440.852968636
1575,223551.69527257
1576,225196.759943186
1577,181117.461688713
1578,150322.021220719
1579,155942.822603769
1580,193745.888496864
1581,142240.3254517
1582,125897.48980792
1583,296610.583447424
1584,216528.31517212
1585,140544.349316765
1586,77126.4305272349
1587,99647.2091621745
1588,143866.615445624
1589,107794.940373377
1590,139937.542634212
1591,91645.1967558368
1592,122989.210157482
1593,118616.516105769
1594,150997.004432769
1595,114188.37301605
1596,239495.198002469
1597,168091.09893377
1598,187411.567893479
1599,163520.543948754
1600,161230.857078844
1601,65485.7633874482
1602,101736.094951951
1603,81533.9878379515
1604,256455.962453129
1605,228971.191985063
1606,178248.230419291
1607,153229.831767389
1608,208197.902602097
1609,195191.3494648
1610,166970.954468494
1611,144007.031104714
1612,165486.845542823
1613,161527.459012671
1614,109207.161575954
1615,92357.7349763851
1616,91418.9167547557
1617,85674.0479311865
1618,122236.183104813
1619,138540.740273148
1620,155875.921579612
1621,143197.125290772
1622,134140.762866028
1623,247071.55733465
1624,207391.709969198
1625,124855.017642376
1626,163141.575335051
1627,186202.494464652
1628,271613.452318795
1629,176981.548458349
1630,373038.935899455
1631,223341.320694752
1632,244096.843602202
1633,171644.327546054
1634,189356.873137614
1635,173104.391850231
1636,162981.912137588
1637,191936.090661414
1638,197083.809980723
1639,190949.790473146
1640,235401.992116284
1641,182102.429272885
1642,250208.007435993
1643,234809.739820969
1644,232030.679294599
1645,211835.538728197
1646,164415.71536001
1647,165133.60476243
1648,136051.44247126
1649,144984.129346783
1650,126087.136453965
1651,127427.851486047
1652,96033.4374941519
1653,101342.084773832
1654,143555.350696058
1655,140944.960280324
1656,145145.363798167
1657,144371.043958721
1658,148558.942782863
1659,136428.798421912
1660,149290.808004445
1661,239272.453730354
1662,390661.7418953
1663,380772.275487987
1664,432732.874654709
1665,287465.973651592
1666,317805.207332731
1667,198075.00581721
1668,332393.417965708
1669,295033.110454178
1670,334777.897655885
1671,258136.816992525
1672,380490.158083549
1673,271709.543218808
1674,237933.218150377
1675,193463.301644483
1676,191423.105560665
1677,209932.338574564
1678,423088.793835541
1679,365998.096660916
1680,346091.398607404
1681,249143.273980545
1682,295627.942111618
1683,187485.277975651
1684,178282.161942677
1685,169903.001935815
1686,171756.166186324
1687,168682.316649653
1688,191468.521233606
1689,185588.968047895
1690,187557.134782489
1691,176460.127223224
1692,246082.09685852
1693,166225.972297616
1694,178071.879793231
1695,169234.912813546
1696,257000.607003957
1697,173379.973310646
1698,412691.71476704
1699,313883.350477024
1700,239920.607635118
1701,272375.231653579
1702,204841.57434559
1703,212612.041090371
1704,303975.202667019
1705,233197.552362969
1706,233129.685937987
1707,206644.827306108
1708,205335.346662829
1709,263186.696127683
1710,231148.177102165
1711,259864.439215958
1712,247617.827034106
1713,269659.579316544
1714,227910.163634895
1715,206150.564455878
1716,167940.907694464
1717,156852.47670133
1718,136973.435334554
1719,193294.370296259
1720,214075.942932235
1721,157927.411767204
1722,132267.130681354
1723,155001.303256716
1724,191670.415631994
1725,230004.921732949
1726,179552.451539638
1727,159749.05380705
1728,172352.134415213
1729,165793.255542279
1730,158480.205423374
1731,112253.532242258
1732,128751.259849098
1733,117145.68292458
1734,120618.865490349
1735,143000.822224654
1736,114833.82674752
1737,310582.017600483
1738,222244.365583987
1739,286888.427819302
1740,228720.375621967
1741,208879.613009317
1742,169805.617366181
1743,173791.25111158
1744,296772.1759488
1745,220741.13142365
1746,213699.808678302
1747,216988.107283678
1748,216767.288783062
1749,158428.292045263
1750,157312.053553001
1751,229877.205532978
1752,122482.635367899
1753,155609.493711366
1754,194762.633750855
1755,173326.336001776
1756,133125.546933874
1757,121780.666893851
1758,146112.261617155
1759,161530.719170105
1760,158638.881394495
1761,157091.47196983
1762,179923.932848614
1763,178611.319359712
1764,114569.558500703
1765,185017.099695281
1766,177079.136406938
1767,210915.942172945
1768,142621.149741978
1769,174061.498830487
1770,144403.532826161
1771,128292.778831196
1772,138971.0667782
1773,132706.057095822
1774,132892.613209753
1775,142127.169912355
1776,114511.912938407
1777,109380.699000689
1778,136939.063465298
1779,111954.063680704
1780,174956.435127177
1781,134051.802061243
1782,88777.5975602151
1783,136492.67609291
1784,100558.841448638
1785,114334.082978102
1786,134862.614770634
1787,160153.504622695
1788,75753.8414496676
1789,107272.200947666
1790,71862.2756857385
1791,169885.372585678
1792,166985.773595528
1793,139644.911034864
1794,149551.912528215
1795,143777.322591447
1796,122728.193127708
1797,146519.425621397
1798,124762.396763716
1799,116691.3690403
1800,120249.759740578
1801,135784.981937099
1802,144288.029610058
1803,150598.756587963
1804,141054.393620323
1805,141591.897033557
1806,128570.028991855
1807,130111.740157485
1808,125106.854882352
1809,110878.69024785
1810,125577.93455704
1811,95142.2804114461
1812,86245.6726146155
1813,113492.673560951
1814,91288.968668242
1815,69513.313946246
1816,103476.560879264
1817,102763.41199628
1818,136893.078409371
1819,121438.52764432
1820,75016.4666320353
1821,130296.275107026
1822,150280.08876557
1823,49066.088803919
1824,141022.26084984
1825,148603.056601716
1826,107606.655995862
1827,93817.2600475553
1828,134272.849713752
1829,141419.296120957
1830,132404.182643987
1831,143972.961547072
1832,116041.391544152
1833,128510.061094579
1834,123281.842394154
1835,116730.341957442
1836,129359.002905969
1837,91136.7216143936
1838,121730.533860416
1839,107845.77564211
1840,157304.538429107
1841,148389.365964116
1842,88226.1098628991
1843,144447.563237028
1844,133939.602335085
1845,137203.015928108
1846,153639.582398176
1847,169234.649816438
1848,65437.0590678761
1849,111576.457097466
1850,106242.020226509
1851,162064.819604548
1852,112947.561197764
1853,122937.268580471
1854,166912.959209677
1855,162807.393159596
1856,213068.319864786
1857,170091.576522569
1858,145923.521372124
1859,121860.946444891
1860,154831.199970687
1861,121469.488879383
1862,215608.014307106
1863,213667.033056576
1864,213686.66959011
1865,349147.167996428
1866,335664.441839203
1867,222488.121656038
1868,300376.658983356
1869,201915.113046699
1870,214177.813227959
1871,245225.640633195
1872,167772.897193202
1873,244023.939322395
1874,150821.536228821
1875,207076.131485194
1876,197777.826458895
1877,216969.313780418
1878,173081.959176515
1879,128678.151690643
1880,139900.769225194
1881,241371.803058083
1882,251396.233847701
1883,190576.335481249
1884,203833.316302143
1885,244405.621079302
1886,281573.826442744
1887,210430.844795584
1888,268269.605600292
1889,166560.520537185
1890,110079.513422045
1891,131024.454031681
1892,87204.065590817
1893,129491.67918951
1894,128253.633689694
1895,143275.56934354
1896,132788.330735032
1897,111908.947252588
1898,118675.928398248
1899,174594.029231407
1900,171917.779220706
1901,191215.143428388
1902,148058.427253643
1903,197205.118755043
1904,157328.579325455
1905,194471.521123865
1906,182461.151823264
1907,229252.438170566
1908,117684.438247465
1909,131709.41147601
1910,126009.765296826
1911,195054.724143039
1912,304799.761339472
1913,136998.81407289
1914,58468.2851745024
1915,282407.836927138
1916,53723.0574185444
1917,226225.484854141
1918,156411.446473011
1919,180412.450975078
1920,153109.171497589
1921,310526.679928865
1922,278128.036289988
1923,207435.029973353
1924,212078.818839016
1925,207264.39220291
1926,331117.818339565
1927,140522.685969355
1928,151250.843265407
1929,133405.126054876
1930,129041.365170025
1931,147890.51163282
1932,142568.148628496
1933,178438.175373905
1934,184601.248125054
1935,171675.563300574
1936,185393.993832158
1937,181897.8243865
1938,174740.441765666
1939,257951.000875405
1940,182503.815720374
1941,162900.843571249
1942,184939.117213907
1943,192930.101989986
1944,332545.507439352
1945,388676.176173375
1946,159799.192815787
1947,248574.246231477
1948,167273.898272665
1949,229284.311402109
1950,195272.703020485
1951,235672.988844595
1952,205380.027721842
1953,167712.455112643
1954,198491.091805487
1955,146518.25984719
1956,248253.099344475
1957,167555.640882716
1958,274719.037708949
1959,135101.756776916
1960,126849.420570158
1961,119241.46482763
1962,98188.5097958711
1963,106806.829947062
1964,103310.164553407
1965,149326.632365562
1966,146413.001217569
1967,285720.919268949
1968,399929.846302383
1969,358933.420791323
1970,443116.336265159
1971,254177.470858191
1972,376005.196279862
1973,247765.163396836
1974,307451.820362846
1975,431886.990273602
1976,271930.283609975
1977,369798.150608035
1978,360760.079626882
1979,348875.725996256
1980,194688.044433127
1981,362584.962830921
1982,232813.256658559
1983,216968.285012354
1984,165711.738106329
1985,222504.603806995
1986,216588.045567021
1987,173566.975736973
1988,173147.189679379
1989,193801.945138596
1990,209038.084126793
1991,223695.001740986
1992,215895.766506968
1993,173235.615022096
1994,252443.851790677
1995,187456.786111411
1996,241950.893992126
1997,336821.376011586
1998,345331.31087727
1999,251099.745971737
2000,317698.391778022
2001,249615.775098526
2002,244463.559106646
2003,254253.607718901
2004,275607.260264869
2005,229980.043664723
2006,210680.381862227
2007,255081.460035557
2008,208025.812486324
2009,184222.816657631
2010,188220.677636078
2011,140560.576630584
2012,165498.066074803
2013,175833.881708953
2014,184841.375575492
2015,196074.741214603
2016,187829.261724591
2017,188441.486142044
2018,115285.232605729
2019,133234.625197424
2020,117045.230969871
2021,113383.957013604
2022,200240.762050503
2023,144088.376068916
2024,251261.995144608
2025,346744.341920383
2026,182413.9787726
2027,153865.930017598
2028,167844.388970291
2029,189344.313311214
2030,279605.157873773
2031,233994.982971707
2032,258490.37327553
2033,271120.468831691
2034,168430.226258901
2035,232254.462165375
2036,193651.531951091
2037,197377.386619739
2038,297286.404465733
2039,201764.467211151
2040,177049.312836187
2041,282856.599859565
2042,223646.540230429
2043,180590.382890128
2044,146869.040632789
2045,200451.799450114
2046,141828.687397014
2047,151453.719507476
2048,130094.32485685
2049,129972.035288129
2050,183582.842248161
2051,103583.919970445
2052,129981.652047421
2053,141888.183754258
2054,100579.44126482
2055,156108.348475463
2056,139622.789732395
2057,119403.441728294
2058,201702.409796321
2059,138896.699472252
2060,163322.357690322
2061,178806.348797047
2062,128045.266635481
2063,120447.792140791
2064,137282.03310586
2065,119257.921040257
2066,159244.523798781
2067,120523.121773574
2068,129161.007976862
2069,87739.8170652051
2070,119122.769940423
2071,92963.8583984705
2072,161294.517187226
2073,145641.7672461
2074,178297.214241356
2075,145900.20469479
2076,131402.181119802
2077,140639.91986434
2078,122520.815099678
2079,146430.406776724
2080,127224.666566744
2081,126383.77604584
2082,137926.790321841
2083,145144.675295179
2084,118801.846707387
2085,141652.97725828
2086,118108.769161904
2087,127200.768062893
2088,91737.439558061
2089,71127.5531959818
2090,121217.153833906
2091,93294.890731355
2092,117428.911335574
2093,115308.17774025
2094,104209.555059024
2095,152978.355453109
2096,82039.7429557044
2097,102634.142594862
2098,162536.342844611
2099,70819.5980948433
2100,83303.1885032216
2101,100260.414435995
2102,132604.338570922
2103,96771.2532353484
2104,124208.32423869
2105,120510.468976712
2106,78426.1605354341
2107,194511.011697599
2108,101719.675052532
2109,96382.1781643171
2110,126873.004712202
2111,145688.496407929
2112,147057.644375977
2113,131681.751270499
2114,131800.044565304
2115,158098.847049539
2116,120516.79757727
2117,145564.341249847
2118,126203.949961917
2119,118168.788825065
2120,126349.871543541
2121,100533.405827715
2122,114945.194343477
2123,102016.28896805
2124,167639.846285712
2125,117601.035053382
2126,158530.857728424
2127,163778.707184169
2128,132300.297147833
2129,89636.5939762627
2130,109807.727859046
2131,149778.44060462
2132,114723.078186331
2133,104244.603184243
2134,148520.751460571
2135,144502.471379994
2136,80586.0902765619
2137,107597.860674315
2138,140156.597031555
2139,152954.487065682
2140,139577.384231278
2141,149109.439847827
2142,124374.882436451
2143,142627.524636473
2144,117070.123239065
2145,135289.337622988
2146,182285.231323271
2147,159172.192848859
2148,142222.254950436
2149,150135.051890941
2150,231755.293427418
2151,108328.258068603
2152,169540.755342878
2153,166984.342362147
2154,120256.994185667
2155,141032.160280554
2156,265311.010363886
2157,222911.868200491
2158,223813.731918964
2159,207627.621629154
2160,168244.914450504
2161,254191.127621344
2162,364370.35022133
2163,240812.553305926
2164,234561.472568047
2165,189070.850899046
2166,155180.983784277
2167,212843.203397243
2168,201101.927366024
2169,194402.663163455
2170,216551.533856054
2171,151168.819987566
2172,142699.07419767
2173,151181.638120729
2174,227415.930459592
2175,292647.661732504
2176,294172.93166672
2177,242507.53543598
2178,206017.606405158
2179,140878.052323436
2180,188012.528827936
2181,197700.233564964
2182,221260.340894022
2183,188036.477991421
2184,116434.126944085
2185,139853.90908741
2186,149625.012893695
2187,151728.163514091
2188,163302.576882032
2189,207201.849845605
2190,93724.5890962402
2191,91644.7187985498
2192,93273.2029350938
2193,135273.810669755
2194,104669.559213222
2195,108823.612485682
2196,99915.9167778842
2197,127458.143133608
2198,165430.604046817
2199,165596.654206392
2200,143863.941564741
2201,146344.031645492
2202,207041.355927255
2203,132255.180499784
2204,196678.519559744
2205,125223.110007594
2206,143104.285087086
2207,211863.432192189
2208,273130.29289084
2209,224911.68070687
2210,121220.884641009
2211,107751.694983084
2212,117229.887909829
2213,98198.4109776685
2214,117066.593777471
2215,88988.7134538291
2216,145540.846343599
2217,67162.9058186724
2218,93160.4416323359
2219,109786.204115166
2220,72298.9413900274
2221,284081.643219374
2222,251999.582623307
2223,240456.240260475
2224,199792.071889136
2225,134602.955214938
2226,178728.69811172
2227,198650.011761247
2228,239961.471881171
2229,248160.968530816
2230,166890.3733839
2231,209219.789965981
2232,189430.059916489
2233,192926.819156147
2234,241998.072681873
2235,221504.158424651
2236,278832.543299675
2237,308311.644465721
2238,193358.238246696
2239,108878.024065901
2240,156213.741070497
2241,147980.050963161
2242,111487.028353615
2243,116269.259362214
2244,89871.862841224
2245,97299.3941802877
2246,153585.894419524
2247,104459.202373254
2248,125478.256919355
2249,128159.056601586
2250,139016.903870476
2251,121684.017021738
2252,191578.190096926
2253,159464.755783943
2254,172536.572652479
2255,190718.985755891
2256,178802.563759722
2257,205152.958040021
2258,168289.955802806
2259,173615.205615155
2260,173084.361380918
2261,176794.258668993
2262,202904.6277821
2263,378217.618823605
2264,234258.23062922
2265,177769.973935517
2266,303482.099832994
2267,383516.21262349
2268,422691.422207046
2269,164090.795101563
2270,181352.27576076
2271,209844.267533094
2272,192691.309101421
2273,173708.385831204
2274,171520.273881478
2275,198842.813885053
2276,189839.254165597
2277,214470.510988305
2278,147003.275396011
2279,123636.604498009
2280,127315.856015906
2281,171540.675368089
2282,183353.246633559
2283,106594.388428169
2284,108348.995134841
2285,159160.951909756
2286,127513.343020509
2287,396806.144202989
2288,309461.587686138
2289,420693.64054478
2290,485551.654078289
2291,324956.839319361
2292,393133.606566544
2293,502830.93708733
2294,391545.069152448
2295,460232.054278228
2296,324987.742426073
2297,311643.924896886
2298,306235.489720629
2299,384058.60731337
2300,328452.766893905
2301,277720.447464763
2302,246794.012169515
2303,247339.556466395
2304,270746.651993722
2305,208297.75016466
2306,192486.364680526
2307,191510.803595682
2308,221623.34324178
2309,285045.080183869
2310,223397.998401093
2311,206517.596267937
2312,180751.621706227
2313,175129.148318176
2314,182766.053333143
2315,175635.661599671
2316,194406.760584869
2317,187701.13230821
2318,180865.371464448
2319,181576.700738392
2320,182962.529777747
2321,248562.116265734
2322,177518.184728406
2323,177349.100256031
2324,178445.668095227
2325,212098.870199439
2326,172676.277801579
2327,206675.589466166
2328,219315.048189955
2329,187039.022634339
2330,178375.580599498
2331,412964.431649732
2332,419059.193560228
2333,341840.392243549
2334,253908.535897165
2335,250698.619485197
2336,331636.655383961
2337,200056.150150225
2338,269470.703010729
2339,174448.918795997
2340,377307.514518168
2341,206442.38159032
2342,241903.793554172
2343,233053.630511856
2344,167512.085104913
2345,230289.792233856
2346,208476.433110911
2347,201007.569835557
2348,227130.406198597
2349,185392.633813726
2350,283022.525332765
2351,253151.852173555
2352,258514.272283286
2353,266248.549271248
2354,143231.455236232
2355,142031.274247796
2356,153173.333196282
2357,185498.143565517
2358,193621.68301915
2359,141702.285903058
2360,114693.97849384
2361,149801.126626053
2362,291590.447729147
2363,142970.268833941
2364,169589.269643063
2365,231706.648295277
2366,195366.891286129
2367,223741.827283991
2368,210155.697761915
2369,218776.480996968
2370,182650.936192543
2371,170963.473370878
2372,186611.733372218
2373,253610.924970025
2374,295221.039149354
2375,229892.591890088
2376,304848.079872418
2377,327427.791733975
2378,146027.265838786
2379,215324.144022167
2380,184895.469637649
2381,165873.566998609
2382,190853.232790288
2383,196608.620815948
2384,233970.645750295
2385,164383.999924864
2386,140287.976926776
2387,138471.527268039
2388,104752.661416664
2389,120424.616300462
2390,142631.455330729
2391,144233.916196014
2392,121618.025972638
2393,164551.891560208
2394,141167.49729879
2395,198118.466007463
2396,151084.982751766
2397,224875.026178713
2398,126452.445373108
2399,68472.3966054297
2400,84920.7285529896
2401,119135.291298542
2402,130809.403424034
2403,126312.456948847
2404,146343.807964024
2405,155503.928467328
2406,141800.943922264
2407,125243.918040231
2408,140767.602879568
2409,127133.672840695
2410,191928.341040198
2411,116487.917763844
2412,160843.824066976
2413,128474.589162856
2414,143903.437771997
2415,129177.317111969
2416,132223.856753347
2417,136273.599737972
2418,126958.161809243
2419,133802.461195482
2420,127396.637276482
2421,147596.644381697
2422,101474.896132858
2423,109755.908764062
2424,134047.486840928
2425,160095.669998879
2426,141913.594401401
2427,135664.014282093
2428,161906.018908179
2429,129629.359386711
2430,143808.038683117
2431,107920.628047822
2432,134423.559982997
2433,138789.667905669
2434,128354.692442948
2435,154325.526226797
2436,107204.063796104
2437,135584.843272402
2438,128650.063143797
2439,110035.601262629
2440,119526.982487396
2441,103176.767199709
2442,97030.1132646191
2443,144306.664580811
2444,133941.394399678
2445,86989.5227326295
2446,143895.856502522
2447,185214.395136956
2448,124648.846913996
2449,118522.49831566
2450,142812.493385153
2451,125328.33764607
2452,191354.518903083
2453,91977.7398510646
2454,124752.222633496
2455,116594.406926192
2456,139521.150763563
2457,128366.864111813
2458,127975.997844208
2459,106514.852801604
2460,132925.635063209
2461,131903.540130283
2462,136692.484069693
2463,133329.409854439
2464,165566.028725778
2465,157052.270080032
2466,139532.899299747
2467,128750.089432541
2468,78559.9621122747
2469,78728.2106451742
2470,171553.950983646
2471,189122.829344573
2472,167544.322764694
2473,120335.647962292
2474,94042.5087285949
2475,234545.823909909
2476,130129.260188577
2477,123421.496316079
2478,159596.017499114
2479,99574.0428170772
2480,154679.677528455
2481,114538.581370792
2482,129339.570234558
2483,111704.184607648
2484,114018.086143997
2485,131697.017945457
2486,143298.22324562
2487,163789.024458716
2488,154828.978851453
2489,145256.41054843
2490,160044.009924577
2491,96913.439377606
2492,180685.453423485
2493,146545.195437616
2494,146174.730355078
2495,98990.9284283137
2496,235005.265734262
2497,150310.597697844
2498,106762.425068072
2499,86146.3074674602
2500,123093.253407487
2501,131758.642294986
2502,148248.660111597
2503,98513.4322875905
2504,194911.784605496
2505,208766.471923263
2506,284193.164891883
2507,280419.153399173
2508,285813.832659273
2509,210037.756074839
2510,212235.566726944
2511,176722.475118924
2512,199018.159887039
2513,210657.401817726
2514,243321.834996887
2515,148082.038624086
2516,174810.534968155
2517,142730.913031569
2518,151919.972361927
2519,216259.367441215
2520,212014.716010046
2521,187967.399275964
2522,213467.294239409
2523,135140.832859403
2524,132568.846442104
2525,153992.674148396
2526,134668.092189752
2527,115526.773907634
2528,129114.412787087
2529,122787.688664787
2530,134745.384399587
2531,250691.045395744
2532,221794.019278587
2533,190377.327919864
2534,225954.586698952
2535,319630.373183798
2536,238441.818007599
2537,220702.200433414
2538,173146.545464857
2539,184043.078940131
2540,171173.667827055
2541,172757.636862221
2542,163850.060952071
2543,122555.683407489
2544,119250.305158508
2545,131316.722282204
2546,135735.853619615
2547,134583.049783424
2548,151242.146145049
2549,154261.675063859
2550,180899.467206716
2551,136034.028081936
2552,115889.586044945
2553,91697.4409533355
2554,132661.470758799
2555,121085.868363199
2556,91661.7157926094
2557,130844.866164048
2558,161348.411915158
2559,134591.815044486
2560,143448.785956226
2561,157253.57608786
2562,142040.262887125
2563,170174.771813978
2564,192528.968461986
2565,134050.164541136
2566,170255.012714733
2567,147335.359638588
2568,200801.759177766
2569,223173.322342002
2570,121165.891338301
2571,174975.549571564
2572,150317.553565525
2573,211928.124444233
2574,220101.489054255
2575,143431.361409167
2576,114876.632039336
2577,139281.990765618
2578,94494.7004763302
2579,82243.8057430885
2580,94780.9524715583
2581,93006.1223642617
2582,118621.553016505
2583,271490.092780443
2584,164092.486627771
2585,186972.895483277
2586,211291.279634395
2587,192398.281178955
2588,152656.128823543
2589,164023.073666075
2590,217539.602739078
2591,190277.699825147
2592,219556.999124508
2593,196743.900204068
2594,174226.239778723
2595,198963.063522388
2596,302121.251202973
2597,209772.077582319
2598,269427.224787438
2599,298524.176991275
2600,152802.191531157
2601,144423.729574608
2602,85938.5902990224
2603,87586.3370932534
2604,95008.8358048376
2605,93289.7269709469
2606,158652.806663395
2607,181746.352248182
2608,202689.441989621
2609,163693.546384167
2610,119076.194910722
2611,141441.74123087
2612,153710.245095646
2613,131283.488620811
2614,138538.558399517
2615,145876.929964054
2616,144633.040315533
2617,196505.064960063
2618,221237.495875546
2619,224925.789666049
2620,177867.313727457
2621,178604.550644327
2622,184100.411360918
2623,229794.308902726
2624,286433.149170433
2625,306564.233621892
2626,176699.593738176
2627,171186.354659064
2628,474497.523336034
2629,469566.970742105
2630,348029.894334512
2631,511003.315697425
2632,422218.76109142
2633,302351.933199076
2634,422538.83805529
2635,166654.081408471
2636,180203.559416292
2637,179599.813991583
2638,239559.958949985
2639,191363.904036953
2640,158607.327124104
2641,110436.41515566
2642,189517.035194663
2643,106942.403888131
2644,128903.794653236
2645,113046.523229871
2646,96000.2492315699
2647,100539.75573384
2648,140967.345561615
2649,162851.200198392
2650,147905.786526455
2651,141253.633530301
2652,417615.882450565
2653,259155.878603158
2654,263235.455708928
2655,342508.792688622
2656,328750.601407744
2657,357131.78142191
2658,302009.813898516
2659,306874.524310233
2660,399770.817127529
2661,384732.399013487
2662,337244.481140072
2663,299448.889598317
2664,271927.119932294
2665,339576.096432249
2666,291317.758556706
2667,173071.217938512
2668,181407.440939864
2669,179191.031210805
2670,276621.317118503
2671,180631.62892613
2672,192053.346094356
2673,215637.984766765
2674,201551.389333082
2675,166062.703125655
2676,185082.873834163
2677,196721.54111586
2678,236917.896797376
2679,256439.085604791
2680,300750.895178475
2681,465708.57290629
2682,300227.699821653
2683,494899.527989916
2684,314153.751419596
2685,319713.35911421
2686,257435.430335976
2687,296969.720827495
2688,214994.773256087
2689,203245.490483491
2690,353396.081481119
2691,199685.933099845
2692,139233.959699516
2693,186682.770475849
2694,146502.262133342
2695,185088.918501074
2696,177326.528048972
2697,185102.58262359
2698,162896.884908165
2699,179203.833527744
2700,157071.991414353
2701,160782.145341903
2702,113718.70185992
2703,121528.525608134
2704,139830.90151798
2705,119829.928175587
2706,124839.255094418
2707,121685.742909808
2708,136493.215963019
2709,114962.905993513
2710,130690.915986502
2711,259578.33542603
2712,373443.680121447
2713,180797.55095775
2714,153556.119285783
2715,168720.891105615
2716,157387.951421932
2717,185018.020409552
2718,228356.436614465
2719,162706.978129803
2720,174485.191604136
2721,137547.522465069
2722,165152.21417129
2723,161376.681460865
2724,131458.134569702
2725,135478.924977028
2726,155735.34716003
2727,192880.919538837
2728,165835.801001761
2729,149034.807546117
2730,148442.889716284
2731,128143.406788929
2732,128629.581548685
2733,170941.444442296
2734,161910.749074083
2735,137141.418277615
2736,137096.110300823
2737,122364.637614928
2738,126135.707499876
2739,160329.914839266
2740,145445.198324521
2741,144190.85610212
2742,154624.380974329
2743,144131.656616423
2744,150181.838677377
2745,146583.393012809
2746,127604.485162686
2747,139894.525114767
2748,131227.219686697
2749,123667.840458339
2750,129819.181000491
2751,123765.134050307
2752,202062.366085759
2753,149404.808399701
2754,235006.269385708
2755,137504.335232293
2756,104952.906323101
2757,89804.8085242985
2758,109454.059428773
2759,157254.653753252
2760,118126.971879405
2761,145579.304524135
2762,141266.910324725
2763,192540.313870462
2764,149733.239798132
2765,255514.875832196
2766,139712.460513794
2767,91611.6880144562
2768,126355.694572513
2769,122176.646502402
2770,150892.003174779
2771,120286.897295222
2772,126874.186118891
2773,160280.424083515
2774,127245.438188453
2775,119001.106709459
2776,137286.672266792
2777,128771.994298323
2778,121120.062801091
2779,135761.520160702
2780,93446.6629910908
2781,95317.3083771432
2782,89953.1337545526
2783,86874.6297778109
2784,126387.981396987
2785,136715.744801932
2786,72694.3176062694
2787,114855.233984331
2788,74220.3188245585
2789,149348.41403019
2790,118902.319921095
2791,115995.266244216
2792,57507.1521289371
2793,169589.634182528
2794,108472.380478671
2795,125659.185607405
2796,92306.6596118878
2797,205562.933807437
2798,106937.243294645
2799,108586.090811138
2800,75629.7560412798
2801,139088.383663687
2802,128694.981826984
2803,140435.301824122
2804,137741.707309332
2805,104622.464939107
2806,76976.4961526584
2807,161846.763734426
2808,152052.607532342
2809,141804.983048643
2810,141459.11331842
2811,149857.279938739
2812,153897.378604736
2813,138503.640041712
2814,140799.954407688
2815,111441.849418192
2816,254930.342804604
2817,151496.328218998
2818,135316.532092144
2819,147379.72477438
2820,133084.335570001
2821,141323.531575295
2822,204699.417893975
2823,299905.140475041
2824,175083.792417593
2825,135220.812710671
2826,137950.89092655
2827,130003.971063673
2828,229397.539412023
2829,172351.759399152
2830,228392.789213757
2831,180519.810217091
2832,248254.198606129
2833,261597.944012807
2834,202180.098390626
2835,214896.643192605
2836,187425.559725803
2837,168516.783077994
2838,153890.938478505
2839,197292.136522661
2840,205398.825320291
2841,199008.863982789
2842,223758.358499142
2843,151886.690446564
2844,162307.767891907
2845,131174.509274583
2846,203582.649341231
2847,201711.371695202
2848,209239.752432442
2849,199328.193611521
2850,272297.715062854
2851,221312.927607521
2852,228369.57649113
2853,228562.727384923
2854,141155.308698197
2855,205637.274239877
2856,191025.069653347
2857,186150.276854277
2858,200546.23043322
2859,124762.312655269
2860,146591.366286211
2861,128036.619959606
2862,183381.721218045
2863,126247.426002431
2864,228638.015642752
2865,148684.375368303
2866,136940.381498603
2867,109850.85019055
2868,94965.0465927728
2869,114420.184232829
2870,124632.263504316
2871,86077.7733775553
2872,63009.8820351443
2873,113119.577648543
2874,134204.299048044
2875,127408.411117132
2876,170841.79694264
2877,149824.333438075
2878,197994.848744652
2879,130809.119529128
2880,104891.560821983
2881,154705.554559243
2882,182838.120348536
2883,207767.646856983
2884,205832.454271732
2885,197112.297790082
2886,245851.339741577
2887,82226.0162849692
2888,145771.247738893
2889,58422.5213933616
2890,75144.3340400054
2891,124963.94151989
2892,52176.451045285
2893,84607.8976271765
2894,74176.1238247494
2895,290919.958189619
2896,258259.4872599
2897,196438.821281313
2898,144516.10045845
2899,188205.794371643
2900,161048.194287129
2901,204981.800125247
2902,190626.150179451
2903,318197.059341667
2904,324910.918326655
2905,109224.249547901
2906,186751.323048548
2907,109488.666098416
2908,137368.655913031
2909,145654.176904073
2910,84326.1771803196
2911,85937.7759327682
2912,141957.086449101
2913,87928.196446985
2914,86375.6314583221
2915,88950.8757387939
2916,87410.6118608839
2917,162803.833607468
2918,110386.40775623
2919,216345.844099329
