"Id","SalePrice"
1461,110821.735291273
1462,134299.455401669
1463,158941.289107216
1464,184155.080976158
1465,183246.004933778
1466,173660.077947327
1467,198091.843392254
1468,164556.175159371
1469,196651.361649783
1470,117390.877179409
1471,193969.65720479
1472,107240.055321804
1473,93116.5547508594
1474,146674.211308118
1475,119481.913594535
1476,316930.637978805
1477,236923.361800647
1478,291652.982803039
1479,259871.792115031
1480,407316.408207986
1481,307055.726101059
1482,199122.786244052
1483,165641.388439779
1484,160670.566660563
1485,204783.917700844
1486,201100.105346024
1487,301962.83609336
1488,253241.432914611
1489,179558.390101843
1490,206492.332733049
1491,189913.837651017
1492,101815.591543609
1493,219897.656096199
1494,294162.065985304
1495,294968.607602849
1496,200721.655407932
1497,166516.431323317
1498,152846.994174191
1499,168806.983167982
1500,151892.091274369
1501,157574.425028057
1502,148989.240449737
1503,259620.48123685
1504,255942.447518668
1505,224298.992912174
1506,180729.518007946
1507,224684.720586062
1508,185040.120543193
1509,144715.021792027
1510,132920.250474518
1511,132462.484646308
1512,162693.56576246
1513,149042.744960462
1514,147727.184622948
1515,197400.877260644
1516,155051.003523909
1517,163225.693678682
1518,126403.210410892
1519,215752.853418134
1520,115881.393778547
1521,106825.438909036
1522,181103.681519007
1523,93871.4120597453
1524,106927.807445931
1525,103711.385104031
1526,97177.2239080336
1527,114466.470078061
1528,165132.03653372
1529,119551.276511969
1530,213527.914575405
1531,125705.139561997
1532,107737.630614589
1533,137364.188761922
1534,135796.700944389
1535,140774.447138954
1536,107227.802398692
1537,79152.2122544945
1538,199876.111353154
1539,262917.837640397
1540,98693.0093905885
1541,151201.362430167
1542,124769.669472633
1543,182377.369589118
1544,99677.0597003873
1545,127860.155704553
1546,140365.853098087
1547,124686.912314457
1548,126672.546037658
1549,128593.036620634
1550,132042.34248155
1551,129737.433412152
1552,123367.649447357
1553,150536.816572813
1554,133837.165121329
1555,138248.656127954
1556,97409.0709174045
1557,89805.967537769
1558,106821.33531898
1559,82500.5787275484
1560,138425.471062219
1561,114643.557660987
1562,131584.749861502
1563,117395.615077553
1564,145313.466555468
1565,139161.551943941
1566,245639.568590732
1567,93270.1801650338
1568,211371.307941802
1569,107852.905894116
1570,152580.01979933
1571,111219.318681271
1572,140958.03369253
1573,220566.551757815
1574,124046.22049496
1575,220525.074206065
1576,239882.374410932
1577,178993.05011474
1578,167818.283427473
1579,131126.903623883
1580,191976.835770822
1581,146259.808513216
1582,129015.469647955
1583,299772.631523272
1584,217971.157728585
1585,141373.05216192
1586,88337.4453657779
1587,104449.854552878
1588,128552.476287834
1589,104139.090359809
1590,135894.736228302
1591,81791.2327331897
1592,135159.590637557
1593,149359.801671711
1594,122999.143762139
1595,108082.330951447
1596,204630.159835349
1597,157150.16491383
1598,209714.258823364
1599,189389.145280793
1600,183030.89953018
1601,65312.014900032
1602,126475.422991145
1603,91945.6203014412
1604,240358.904568037
1605,274016.136071487
1606,165615.577820595
1607,171119.960939812
1608,239846.665148319
1609,179650.994813024
1610,145523.101822229
1611,146515.412492013
1612,147367.332088056
1613,159785.679200592
1614,119990.024887544
1615,81265.0200742617
1616,73543.1837050732
1617,85363.1729682748
1618,117464.863424384
1619,147219.607622
1620,171757.257837801
1621,125593.627172017
1622,125291.186869395
1623,268003.744568047
1624,197826.584315097
1625,113328.776543943
1626,180449.331920045
1627,177886.226941171
1628,276057.173781575
1629,188466.158168866
1630,273755.935545781
1631,211800.457812912
1632,216349.91950164
1633,187774.049109226
1634,188670.843677148
1635,183277.217574755
1636,161376.608179448
1637,184587.772580958
1638,208440.616194514
1639,185699.807160407
1640,245121.241081685
1641,180619.321384134
1642,222587.001335243
1643,224352.896628896
1644,231793.897478379
1645,211587.61089478
1646,171922.47343116
1647,174869.960821526
1648,121126.093476547
1649,123964.593077387
1650,119564.949970553
1651,122022.732550033
1652,114224.542041386
1653,116457.374437768
1654,145695.838738491
1655,151674.60370528
1656,141052.087552991
1657,146476.81931759
1658,145090.28091701
1659,123858.277816621
1660,144912.590977203
1661,446226.173363523
1662,364577.648047096
1663,346506.539251951
1664,520256.391273512
1665,304899.89876983
1666,308044.036598589
1667,332835.177483725
1668,327185.105311433
1669,314686.390312972
1670,335010.364189529
1671,236033.290460753
1672,396284.96168793
1673,301607.206411234
1674,259894.650794763
1675,161568.875186967
1676,175262.008134781
1677,202334.955944955
1678,422727.531633965
1679,319326.422192064
1680,278762.409471163
1681,231626.463591881
1682,293544.643856397
1683,178610.160057678
1684,192906.662963098
1685,171324.462038616
1686,172656.411314252
1687,186054.92845418
1688,198419.133403851
1689,203806.431634701
1690,208394.906186534
1691,206262.370163937
1692,283744.709768478
1693,173394.006050364
1694,185480.328786621
1695,181631.63557119
1696,281728.646239968
1697,185219.912023375
1698,350170.207361001
1699,315947.693703008
1700,238464.746673439
1701,269150.559942038
1702,248246.375020162
1703,260054.904689697
1704,281169.125294639
1705,230475.694695638
1706,384999.252898291
1707,187088.524268294
1708,192474.808385477
1709,289168.833000603
1710,219312.60576823
1711,283151.276882315
1712,236456.208720103
1713,257282.149434343
1714,215356.438263833
1715,203498.673581044
1716,172414.918215333
1717,188117.117951486
1718,120703.842987333
1719,196164.619763389
1720,241009.587555191
1721,173235.550780303
1722,108330.109864987
1723,155231.909833812
1724,206967.782271135
1725,230705.883200111
1726,175047.762061926
1727,142563.647474912
1728,200039.80814148
1729,158339.923672228
1730,182585.37827312
1731,126796.38998294
1732,126316.132972471
1733,104326.993810463
1734,115762.420844522
1735,131470.109103137
1736,104492.006866686
1737,341237.463152388
1738,235337.804158697
1739,247077.248320482
1740,167026.920026212
1741,159276.420832898
1742,158785.939485457
1743,175542.18973823
1744,306387.30608687
1745,182034.580145794
1746,231461.925621517
1747,221513.560238316
1748,225430.350756971
1749,147536.467616535
1750,136075.366294273
1751,245066.941063404
1752,104966.299916295
1753,132853.962395764
1754,206555.278069813
1755,149648.557356854
1756,121555.20682442
1757,105295.112870386
1758,139151.270653541
1759,164583.246373105
1760,168771.08410427
1761,153869.517061004
1762,156860.60180618
1763,162937.933876962
1764,112267.940245875
1765,163021.999249807
1766,193515.2823708
1767,251955.069432217
1768,126807.600732818
1769,173195.654809185
1770,164905.72117226
1771,106288.071061925
1772,114910.209143314
1773,116458.902592345
1774,129899.193361581
1775,132799.332931294
1776,124862.267363413
1777,108663.84034116
1778,137780.806069044
1779,109678.406972081
1780,204712.122697137
1781,109484.231799221
1782,78885.3934848083
1783,152965.021402253
1784,110155.738466934
1785,110159.097184302
1786,139274.430026739
1787,203138.576231755
1788,66005.0289204743
1789,112870.020238052
1790,86708.2438772752
1791,190536.618056237
1792,140271.120831341
1793,150054.877056924
1794,172663.309880322
1795,120189.395241607
1796,127267.880017764
1797,133543.03514572
1798,105839.145142189
1799,111191.63744674
1800,111228.598422006
1801,120090.403008802
1802,160023.0143253
1803,143510.170412421
1804,128281.101635642
1805,139500.730784863
1806,142154.85934681
1807,162945.209108677
1808,142575.357587906
1809,123731.549256451
1810,133383.009414044
1811,85826.157899454
1812,97806.6241104869
1813,113921.628920737
1814,98286.5186297467
1815,64905.8568396801
1816,102926.185744598
1817,108808.116721534
1818,143321.889958162
1819,158031.140326546
1820,78004.0743315322
1821,121374.775767231
1822,173178.583217653
1823,66888.852459663
1824,135478.087612276
1825,142686.431780434
1826,100114.915566872
1827,115486.128080262
1828,128203.827413674
1829,166596.615907146
1830,148417.452794306
1831,183144.415219229
1832,100792.702576201
1833,148774.645786295
1834,138336.138840649
1835,137298.173586446
1836,125378.017047635
1837,88857.2391926297
1838,124597.336750719
1839,105870.941370397
1840,153011.01393659
1841,136057.180418839
1842,112864.395188068
1843,115282.464556652
1844,133633.39555288
1845,134764.320381048
1846,138498.979037684
1847,128075.688994895
1848,57585.6629234191
1849,113326.196735884
1850,114790.74511247
1851,134164.549870342
1852,129854.545466006
1853,118094.270827265
1854,171580.73340255
1855,146945.66067362
1856,234608.875766227
1857,168856.327803157
1858,150707.900580451
1859,131614.220998353
1860,151206.120757923
1861,131099.276610945
1862,432389.281221325
1863,428878.332022595
1864,428911.371160308
1865,305807.929448231
1866,328437.727020297
1867,253014.54487119
1868,283255.738098219
1869,216230.547807678
1870,254872.621076419
1871,252223.424318683
1872,170237.178353229
1873,222142.961451808
1874,136030.784032292
1875,204338.521290909
1876,198380.545342586
1877,208712.606403892
1878,206803.16497773
1879,109903.370392829
1880,136109.420559851
1881,243593.993693697
1882,248848.027670677
1883,186604.929267531
1884,200702.149639926
1885,250254.838632351
1886,267792.938774875
1887,220944.146997468
1888,293970.017733045
1889,171595.069021211
1890,110843.469439357
1891,137692.261449064
1892,89964.1696627533
1893,119612.077307828
1894,105771.187671452
1895,119933.495628718
1896,118785.288989654
1897,110991.862735197
1898,127379.239429015
1899,164965.862218639
1900,166174.921593307
1901,151369.518301252
1902,121538.521646262
1903,204765.982712836
1904,123577.292704912
1905,187567.579568666
1906,163024.624133458
1907,184190.517407087
1908,132680.628514107
1909,153528.595694453
1910,134402.502513787
1911,211256.990154376
1912,310789.720777989
1913,173088.815297182
1914,84997.8588369599
1915,233827.233443346
1916,70932.7148821288
1917,266839.690243598
1918,141552.281298487
1919,185675.854830306
1920,162920.906568325
1921,342150.675158063
1922,299066.470911592
1923,219321.969956365
1924,228369.753618319
1925,201387.870281354
1926,350241.257777007
1927,114435.822077102
1928,154587.415722473
1929,106014.720899488
1930,128253.678233324
1931,138707.420036424
1932,130030.58032523
1933,139453.900930215
1934,171356.080052877
1935,171917.709940036
1936,165968.292815816
1937,178861.169543425
1938,161673.939319721
1939,211273.738842873
1940,186085.854193651
1941,173131.003111711
1942,181676.714216668
1943,207187.925253287
1944,314579.087672073
1945,340751.203765444
1946,149362.512073204
1947,267840.616282581
1948,166511.058169983
1949,233866.110757875
1950,203250.296482394
1951,251254.674535529
1952,214401.390231235
1953,174311.885960049
1954,208072.623712958
1955,123151.515806561
1956,327449.028443693
1957,163770.577188669
1958,309791.33472949
1959,137562.333226216
1960,97188.851441773
1961,127565.220815456
1962,105291.850363131
1963,114320.473484333
1964,104801.844038792
1965,137321.741540334
1966,149305.946651985
1967,274778.677686015
1968,347680.405989175
1969,343280.846531953
1970,382951.210500028
1971,490208.226118883
1972,352588.987214722
1973,268980.987070955
1974,315193.843839655
1975,484486.444570542
1976,285805.864065875
1977,323210.878580127
1978,309755.922903578
1979,298129.514074457
1980,178384.494692669
1981,304438.901022453
1982,217496.061669451
1983,197172.679296779
1984,167092.859018271
1985,232263.537830214
1986,226741.066795378
1987,192963.010977507
1988,171457.616837949
1989,202735.835014077
1990,212023.477662378
1991,207112.391704201
1992,206925.907500116
1993,190171.654468631
1994,226108.032439599
1995,193639.452119079
1996,234758.664558804
1997,304400.647810796
1998,300417.957450239
1999,251783.679841164
2000,299673.333957342
2001,275339.638569442
2002,248771.718137249
2003,277861.378714231
2004,290145.033581716
2005,222633.640953749
2006,215287.245931433
2007,261180.600760698
2008,205260.511720843
2009,190175.824806987
2010,194120.065374651
2011,136852.572884878
2012,179123.023508099
2013,161609.610692387
2014,167379.164793149
2015,189319.071932475
2016,183279.58155398
2017,189623.360987021
2018,125036.391095426
2019,146053.342774329
2020,98481.7284940752
2021,102229.993407887
2022,177889.630890454
2023,142868.574492779
2024,262557.17258455
2025,341266.764290344
2026,162842.039540216
2027,153447.787228424
2028,161816.789303663
2029,160392.448080542
2030,261185.495871447
2031,233758.107295171
2032,233235.152495425
2033,252413.794615937
2034,175870.01262956
2035,221068.338792149
2036,208153.031554666
2037,209475.839877223
2038,317184.442955375
2039,202223.337193961
2040,322288.27658078
2041,315382.401542015
2042,205525.316448899
2043,158016.961904114
2044,169637.623253942
2045,194884.291202546
2046,133552.671994535
2047,126027.729589673
2048,153546.773363539
2049,133422.516724428
2050,166370.846204345
2051,110183.167815654
2052,137532.431188285
2053,144290.984349578
2054,88522.9858855927
2055,137428.636141753
2056,155291.10377043
2057,105106.958336887
2058,194563.198570588
2059,131702.696691222
2060,170860.852825587
2061,185255.654439236
2062,117123.813088358
2063,113584.216003311
2064,119131.703038483
2065,113244.847401612
2066,175770.582262033
2067,135883.027149532
2068,133279.624303051
2069,91100.4496914911
2070,110016.090553097
2071,103447.739061809
2072,152449.156408759
2073,132672.774716735
2074,187764.76242484
2075,147833.595390655
2076,120860.838898467
2077,122694.582809944
2078,105309.147883923
2079,143386.937173713
2080,128491.788733694
2081,117091.18557045
2082,108931.334852069
2083,129251.148306433
2084,103801.493494501
2085,107190.208205929
2086,149881.016352138
2087,139808.91039364
2088,121939.50444851
2089,92271.4990418495
2090,140629.135205615
2091,96464.6905159873
2092,135030.183785719
2093,118354.286701329
2094,141793.040688715
2095,140536.991567742
2096,100782.874279379
2097,111170.488830432
2098,142061.105649767
2099,66128.0257787613
2100,89561.949331372
2101,136946.088010217
2102,144467.996783531
2103,119207.800476927
2104,133610.821811789
2105,126406.468420705
2106,71715.8022814736
2107,233974.933807136
2108,117349.522593479
2109,109368.738262458
2110,129333.003243896
2111,150581.741858422
2112,125947.820676946
2113,123257.625108927
2114,142389.668679705
2115,150927.260482119
2116,138625.356563442
2117,159807.312967247
2118,131049.681382752
2119,115532.128864891
2120,140060.413558305
2121,96798.6615493931
2122,94194.5022465119
2123,111406.549498749
2124,182378.447695163
2125,133398.645067022
2126,166734.014342045
2127,163475.646240079
2128,130465.977001857
2129,121588.49318103
2130,123132.096124457
2131,169228.635829879
2132,135717.153993658
2133,145840.247788118
2134,145324.298068132
2135,128199.210909467
2136,68836.4862251472
2137,117661.46426464
2138,129802.546429585
2139,156974.477948248
2140,140526.694984045
2141,151732.068111319
2142,108012.525488261
2143,134217.25703385
2144,107154.332027205
2145,140903.076085829
2146,168560.343257808
2147,141240.626852464
2148,157227.015573173
2149,133700.678830823
2150,232412.93436126
2151,134235.47275963
2152,151510.6468465
2153,165990.178653728
2154,99304.9080119473
2155,140527.802449034
2156,232272.242377058
2157,235252.504741315
2158,219521.685861049
2159,206414.505936318
2160,191845.999361167
2161,259995.975717959
2162,402844.144828989
2163,352339.819907232
2164,259245.22354224
2165,198131.302163517
2166,149729.441551709
2167,220103.281826437
2168,186228.537012622
2169,184744.236314233
2170,219212.665058956
2171,146981.092911007
2172,130980.245805949
2173,189783.327361452
2174,213953.493274507
2175,323822.486278308
2176,296639.966484833
2177,221726.893976919
2178,227772.331876408
2179,143917.673053198
2180,228884.451296579
2181,187051.188654742
2182,218086.131603692
2183,185692.075545836
2184,118986.426135169
2185,119314.232904892
2186,147378.520424051
2187,162993.820166842
2188,162837.979241147
2189,310049.70611672
2190,85035.2726970993
2191,85182.876282744
2192,76828.8972037158
2193,111213.373764612
2194,109485.441509209
2195,92823.9384763362
2196,91938.9220133832
2197,114536.413421391
2198,162260.14717589
2199,216793.448605385
2200,144991.416580553
2201,160892.152159113
2202,230009.390162129
2203,134782.476520948
2204,151517.103591587
2205,108075.622732692
2206,132153.315149874
2207,198832.993071285
2208,274138.846836325
2209,163751.385288601
2210,132209.160700059
2211,147900.192155082
2212,138246.389738563
2213,96811.3033861048
2214,122068.060530142
2215,116306.838973345
2216,127521.742136243
2217,69714.7789523277
2218,96033.2165281311
2219,105468.937887272
2220,86697.2067148822
2221,235616.189282703
2222,218200.314334888
2223,272412.856886327
2224,233100.345860838
2225,137569.331621014
2226,168829.787066514
2227,200883.559678185
2228,262236.935715146
2229,251922.552803601
2230,144994.540810733
2231,208299.586809089
2232,179563.66157211
2233,173600.733160337
2234,250697.187291147
2235,194941.34229207
2236,258280.026337423
2237,296817.819983407
2238,251449.298170781
2239,109013.021573861
2240,156068.907766777
2241,132382.645308099
2242,111559.033826234
2243,122274.539914927
2244,105134.37462977
2245,97163.3398959048
2246,127880.469560835
2247,126276.895648231
2248,117925.271049348
2249,116297.446459228
2250,124087.538776535
2251,121384.987505588
2252,170865.512291663
2253,162650.518578285
2254,178730.647584947
2255,204097.137529214
2256,180595.405838193
2257,217224.505458616
2258,174885.838243009
2259,180534.924870358
2260,162682.930823123
2261,200342.184523271
2262,195612.588783667
2263,346943.55279522
2264,454665.000121588
2265,155005.791060632
2266,257422.40375635
2267,286826.959209615
2268,421286.085549534
2269,171888.396692326
2270,207331.943039443
2271,222423.911646727
2272,223274.624524047
2273,162246.449649252
2274,198337.840306715
2275,157393.364787135
2276,186994.010711001
2277,191633.977299057
2278,159901.073446417
2279,117896.688029764
2280,101229.370468927
2281,159244.352268251
2282,172647.106614977
2283,112396.768615324
2284,109619.716164009
2285,142116.600636824
2286,119866.305638694
2287,338185.742115856
2288,259358.308864008
2289,317340.664105765
2290,384542.982798264
2291,297984.156973885
2292,440102.930391175
2293,402734.051681593
2294,354912.986061508
2295,458728.106271313
2296,248410.624374173
2297,319829.533037752
2298,304269.243779948
2299,321572.86494157
2300,320449.472543776
2301,292036.096015378
2302,242239.456419029
2303,251836.155977907
2304,242629.181447038
2305,165221.7082366
2306,165222.396213974
2307,181329.997741701
2308,210682.97621556
2309,264231.491012453
2310,197531.508419405
2311,199530.265990853
2312,181280.032919917
2313,177831.204210468
2314,188046.407100305
2315,176037.7619305
2316,221445.801797209
2317,187296.376781419
2318,167757.054774735
2319,185843.019669904
2320,187058.355260145
2321,255294.407632155
2322,194619.902265113
2323,191953.998949533
2324,208555.797914867
2325,206305.885219924
2326,189584.917921898
2327,207601.380800078
2328,219000.367551657
2329,194720.446725365
2330,189748.933600575
2331,334491.622385227
2332,391120.743698648
2333,331525.163312379
2334,251337.792552358
2335,275469.466334109
2336,290960.789759551
2337,191654.006949235
2338,286755.635904632
2339,233708.854075599
2340,380930.888518325
2341,216208.31391722
2342,242665.61690957
2343,229181.601430197
2344,231081.482710224
2345,241098.525395255
2346,208001.456163338
2347,186009.943781638
2348,224289.013047803
2349,160089.837360192
2350,293611.472063462
2351,229511.889962078
2352,263351.504730642
2353,233494.331377101
2354,122260.340587063
2355,137430.515726654
2356,147445.792290402
2357,189936.396885433
2358,175396.887243921
2359,133961.585548474
2360,122501.5840699
2361,142034.830767792
2362,265137.259421476
2363,137696.348199525
2364,196075.529627901
2365,224147.498458647
2366,200181.950525376
2367,215532.177653222
2368,195219.964267661
2369,195502.046737142
2370,168649.962517876
2371,147476.871362296
2372,188425.644308187
2373,291398.639893767
2374,307841.837065479
2375,220965.13094841
2376,256175.647807854
2377,311207.893862466
2378,154776.279687637
2379,208455.672136573
2380,147470.033167166
2381,165508.419177195
2382,230172.336702158
2383,209000.312299857
2384,244317.299224087
2385,181180.56618524
2386,132616.14185357
2387,133652.467360915
2388,121123.014850898
2389,122361.95676884
2390,144724.328333705
2391,131072.788653555
2392,107888.14627229
2393,175444.377600122
2394,138429.192070096
2395,208846.503680906
2396,134465.811950088
2397,210440.128665687
2398,144352.547234774
2399,66366.2584714878
2400,74219.8311432076
2401,122732.894090468
2402,127375.145003978
2403,144619.490977565
2404,137595.498237576
2405,158284.578252533
2406,148523.005762942
2407,117116.482248211
2408,147034.796289653
2409,113680.570767491
2410,180630.554701961
2411,113821.738203282
2412,133849.209845918
2413,119351.049303396
2414,135413.083157645
2415,127337.985296124
2416,129585.93223384
2417,121398.967201784
2418,140506.536663049
2419,106879.23339787
2420,126893.156273354
2421,128042.420072517
2422,103165.273330093
2423,120507.224699205
2424,161616.60500297
2425,240340.691393547
2426,142689.243014379
2427,121340.626278453
2428,209017.180619862
2429,108060.198852018
2430,134234.239196894
2431,107339.199073221
2432,136324.22487685
2433,124296.469936849
2434,120938.075978445
2435,137216.837120891
2436,106030.81849471
2437,103837.261949133
2438,114315.835514445
2439,125481.658652055
2440,131982.00658949
2441,117313.663481108
2442,119200.513831061
2443,134043.101386246
2444,150954.429137932
2445,92873.6084774538
2446,126954.033455962
2447,230124.312520433
2448,132247.092116501
2449,122555.214395723
2450,178455.693773695
2451,130992.829078874
2452,232097.859665383
2453,94603.63721505
2454,125280.501262206
2455,144606.928309747
2456,121402.181691727
2457,131344.054072598
2458,128391.113140641
2459,101970.826350751
2460,159102.408989663
2461,124362.480836074
2462,135300.888344808
2463,130418.242887138
2464,174890.029433511
2465,137654.249679927
2466,116463.832078882
2467,188246.538460687
2468,106933.305169141
2469,98465.1622347381
2470,192107.359218842
2471,230403.103374706
2472,160351.742845137
2473,111175.814206227
2474,97868.6101877323
2475,263954.200375328
2476,110987.120375041
2477,101138.163922298
2478,148187.060628508
2479,112285.442838937
2480,148788.420348962
2481,116870.465486361
2482,121139.348480626
2483,105484.631629752
2484,132224.436674534
2485,125525.527640047
2486,145815.258799808
2487,200428.424548529
2488,183010.883172148
2489,161264.653194222
2490,151305.589753686
2491,105843.361399676
2492,180498.504966647
2493,165287.497029051
2494,147308.370277885
2495,97484.1266467012
2496,253452.526647911
2497,137659.557103716
2498,101471.142377326
2499,101433.528213412
2500,110817.959280406
2501,123260.734464078
2502,145221.841121769
2503,100983.678006667
2504,180246.50544715
2505,237084.597906887
2506,265225.984874355
2507,272327.326403719
2508,265255.799795847
2509,219474.069819263
2510,230446.957173484
2511,182730.162459137
2512,199699.989415788
2513,232283.357689958
2514,286706.350427961
2515,129041.825824306
2516,184250.303670487
2517,138258.806455859
2518,139072.843283286
2519,211274.491253148
2520,220972.559803516
2521,188119.068097036
2522,231057.0088144
2523,119120.407434183
2524,131998.957083519
2525,135182.861033336
2526,122483.443223807
2527,118616.091423085
2528,121224.226354311
2529,142351.588141543
2530,129810.628422267
2531,247558.057135372
2532,228767.431491659
2533,202529.788630457
2534,228143.249450399
2535,289906.502507534
2536,255848.807178495
2537,236379.974301949
2538,183450.104452341
2539,202331.185058122
2540,174626.265527104
2541,196539.215390814
2542,147715.782857005
2543,124551.802888554
2544,108687.910274398
2545,145895.216765944
2546,137076.820026526
2547,158803.73693048
2548,155403.493891543
2549,159034.419382425
2550,805315.4121909
2551,139442.142348822
2552,136426.858843526
2553,82150.3722098457
2554,100021.445441553
2555,153684.50607935
2556,93673.5064902711
2557,114186.492513578
2558,153393.220164105
2559,109097.062634976
2560,164425.674437841
2561,172047.377022205
2562,133704.096483024
2563,148134.58818264
2564,221143.445693795
2565,139141.920020399
2566,133855.059166305
2567,114315.021754184
2568,169565.876946619
2569,179342.356273533
2570,132736.397484586
2571,143622.200899498
2572,179015.553523925
2573,204820.188832374
2574,280555.276872061
2575,133269.352873661
2576,127913.927577637
2577,156176.819241403
2578,101640.255831584
2579,68716.398652895
2580,118940.706486779
2581,124554.77105392
2582,131495.177404239
2583,246819.81142666
2584,175276.778673592
2585,177893.382799542
2586,214021.110844229
2587,217645.218588441
2588,134894.637290561
2589,156483.800735766
2590,213573.839524539
2591,240118.358895349
2592,201259.972189665
2593,232973.082460041
2594,188394.574654709
2595,212257.145704962
2596,304150.743938873
2597,174381.882566018
2598,278066.039372779
2599,353923.305370372
2600,156502.58239433
2601,146860.416421162
2602,83515.1728780074
2603,92128.2394781613
2604,78558.3936837521
2605,82625.3877599134
2606,137904.330830483
2607,248409.981862583
2608,212610.19025162
2609,165416.299264448
2610,94705.2676965124
2611,107380.698388967
2612,156444.589924316
2613,132830.633436342
2614,115431.364685935
2615,168424.055462331
2616,161508.472999197
2617,156674.238999721
2618,185453.872431672
2619,201181.297809958
2620,203443.745185291
2621,176275.057596843
2622,187963.501725099
2623,242722.77033424
2624,294692.910290686
2625,234861.095839301
2626,176804.653557691
2627,178947.961423949
2628,417953.922133899
2629,474461.162907125
2630,336940.428868358
2631,436310.036765348
2632,384594.848119843
2633,270744.319151851
2634,399256.247092869
2635,161544.261887516
2636,207864.938245444
2637,183594.172150857
2638,249171.190070337
2639,198539.673013989
2640,159089.348820808
2641,103940.497050933
2642,174576.544629974
2643,119541.691552586
2644,120526.79686459
2645,111309.868557522
2646,104941.880023961
2647,114453.820884047
2648,149969.674474842
2649,142883.411061943
2650,154207.136523831
2651,143886.601702113
2652,366600.648479425
2653,258153.980899348
2654,223443.614572439
2655,372009.239972285
2656,317049.231172825
2657,309980.168942068
2658,262371.004061803
2659,292220.398611231
2660,318108.962275503
2661,340415.398170234
2662,336034.087813401
2663,295933.794180072
2664,264300.062757374
2665,333501.927138486
2666,271543.529931174
2667,173622.328682508
2668,185701.312796822
2669,170748.171012464
2670,288389.11568803
2671,188503.796520719
2672,199852.810787285
2673,203990.558945409
2674,206933.804354915
2675,165202.036056542
2676,201657.083974398
2677,183940.549822434
2678,272520.754947587
2679,294517.420923521
2680,298714.602748415
2681,389083.98959803
2682,307933.25713978
2683,554177.295508116
2684,320126.657868559
2685,351700.978123314
2686,247202.016933182
2687,288337.267019068
2688,221804.874653251
2689,206835.335832123
2690,391409.078603716
2691,171545.112144138
2692,123614.319438618
2693,194726.236007448
2694,124992.290831401
2695,195561.922408981
2696,190562.123383661
2697,176700.127730752
2698,208840.06349888
2699,162787.590640019
2700,142919.454575911
2701,155678.692006512
2702,126917.534730639
2703,157040.349788501
2704,150335.546178297
2705,107242.595007949
2706,108835.650503885
2707,136088.280004748
2708,111268.734066347
2709,97429.6526400631
2710,116258.877731365
2711,307016.210666271
2712,373197.540774497
2713,160078.631433447
2714,158414.673339517
2715,147591.285752224
2716,154256.409823661
2717,185160.973649241
2718,226078.259538187
2719,132732.246982382
2720,207507.021673629
2721,133406.542591833
2722,158806.99496279
2723,180746.800425337
2724,115648.661151785
2725,124000.898162646
2726,120929.631067438
2727,175060.497770086
2728,176580.189514244
2729,132851.768107698
2730,128244.988377671
2731,142881.391075034
2732,117210.820861329
2733,166786.147822819
2734,138222.295198407
2735,118901.451226242
2736,135201.760512153
2737,111711.419708033
2738,132157.893025424
2739,161174.406542341
2740,138486.948504364
2741,118000.11544851
2742,151200.001624872
2743,135423.104653935
2744,164978.374304656
2745,156296.436183472
2746,135098.44162488
2747,152915.206772591
2748,117329.301637764
2749,121716.483312271
2750,120387.01363693
2751,137039.386734908
2752,256596.941279128
2753,157501.154556735
2754,240770.9396812
2755,133786.414630995
2756,95224.9390690414
2757,85624.664100302
2758,103129.980553054
2759,163031.530509831
2760,119893.974148632
2761,130045.74572027
2762,131535.393305461
2763,243093.783680433
2764,192686.623553758
2765,333336.202646121
2766,104978.549382934
2767,89702.713980173
2768,105648.716801721
2769,112038.828475178
2770,166995.936396095
2771,105970.420411369
2772,92493.8970130869
2773,171732.08306112
2774,127732.005104912
2775,116623.676090034
2776,164709.456727404
2777,186113.331880952
2778,144260.185822565
2779,112111.425783181
2780,114871.322941549
2781,104251.400206719
2782,93212.3713174412
2783,90304.4165703602
2784,112421.587534764
2785,128035.182802719
2786,82314.6152518718
2787,121464.919960854
2788,78828.5850090229
2789,206401.220868345
2790,101299.148662179
2791,115971.532646155
2792,69216.0189209299
2793,160119.066911154
2794,90663.1760101761
2795,120846.72482711
2796,102617.124560913
2797,196606.638860306
2798,127113.807248183
2799,128282.782701622
2800,87783.9158234458
2801,116298.118805725
2802,126958.096719646
2803,156402.948671978
2804,138125.801465046
2805,113062.448300749
2806,95159.0032743965
2807,175931.123317998
2808,137866.20165742
2809,119050.897221811
2810,122784.152255798
2811,158104.506585092
2812,167687.330485796
2813,146518.794009969
2814,142163.701279474
2815,107229.054846133
2816,221239.198390312
2817,155094.253464381
2818,127413.728845165
2819,179304.201314288
2820,120488.791480797
2821,119071.570957772
2822,215209.402911188
2823,334561.308592153
2824,150144.917496996
2825,172531.055088017
2826,127150.174324569
2827,126350.37652017
2828,209198.864976256
2829,257433.764211071
2830,220003.972520632
2831,185085.607251161
2832,214361.67715084
2833,276459.473235848
2834,201725.983934815
2835,209927.11823946
2836,193077.148827595
2837,178449.144324609
2838,135135.326640952
2839,183495.612410394
2840,205054.913519067
2841,195140.103777212
2842,233063.992988965
2843,140268.307962082
2844,176368.328257427
2845,113712.273596102
2846,203681.702921438
2847,204113.173746925
2848,230117.591675176
2849,197237.058106341
2850,307888.77337528
2851,220250.021413428
2852,234571.494173252
2853,241349.85514081
2854,145749.401444012
2855,206522.92384769
2856,193271.036836912
2857,193222.041644162
2858,211088.426530368
2859,147819.794722914
2860,111445.393128532
2861,127174.993093543
2862,207249.943429393
2863,130655.675249753
2864,225865.321110459
2865,140876.853172047
2866,172198.950932152
2867,92449.7994369173
2868,134123.254185274
2869,101110.56036512
2870,129710.87269903
2871,89954.9918037689
2872,64793.8533292931
2873,114998.376010872
2874,130722.867301497
2875,117624.590902072
2876,216518.311516938
2877,127924.394539306
2878,155426.899838731
2879,129075.676077993
2880,102870.53964022
2881,133935.819512169
2882,128176.400114798
2883,182987.240921539
2884,224541.054854945
2885,159956.667895182
2886,200595.181647728
2887,117790.072537396
2888,138255.079791303
2889,76393.9899481861
2890,90299.7063213375
2891,136571.29746646
2892,71093.1205568879
2893,93559.1895233199
2894,71817.3151766744
2895,281250.307107429
2896,247815.457274168
2897,186177.25966563
2898,154128.504972402
2899,216687.409735673
2900,161493.669250612
2901,203519.493870923
2902,183355.121352617
2903,328057.201475956
2904,339098.920160079
2905,73810.0445063968
2906,254709.615588094
2907,111857.691150165
2908,134130.584373466
2909,149882.354907923
2910,78975.8104745687
2911,84150.6232808005
2912,143139.769008378
2913,85580.2700127014
2914,77443.9565870245
2915,80992.4446457855
2916,85644.6158147169
2917,180626.173263733
2918,99423.707349133
2919,236398.253150486
