"Id","SalePrice"
1461,94905.1298199753
1462,205184.153998613
1463,277139.92739803
1464,182213.05474836
1465,264406.893415934
1466,79940.977329698
1467,172749.195251149
1468,44369.4598894388
1469,240559.106247466
1470,70702.4185522554
1471,281408.528541755
1472,52725.5552006162
1473,50588.0911153286
1474,124699.974133647
1475,235043.070277866
1476,208751.923698327
1477,260586.642387371
1478,110478.079240514
1479,83900.4253573885
1480,125613.159303194
1481,130323.819346122
1482,193439.157287143
1483,150369.265229712
1484,45270.5468536461
1485,240715.73530676
1486,106186.761853959
1487,103430.808286296
1488,177210.997024598
1489,258770.23423738
1490,177997.617613144
1491,204163.915532558
1492,76060.0753224045
1493,258573.376247471
1494,270966.619964895
1495,229234.978797376
1496,181686.963467228
1497,220689.544193636
1498,182996.805444131
1499,155072.9775924
1500,358647.786415263
1501,241042.100415187
1502,207784.683992146
1503,97575.5817236476
1504,151393.854556024
1505,154386.659797998
1506,321315.252702323
1507,195580.73120608
1508,241865.09600322
1509,103680.657811223
1510,169164.145882529
1511,148444.315842479
1512,216258.046374073
1513,228400.714431668
1514,108473.880595329
1515,158876.603448755
1516,258530.487609248
1517,101505.593684326
1518,192412.503321095
1519,260738.487295952
1520,406914.062016619
1521,247869.858695523
1522,248815.806940919
1523,94280.5192668305
1524,138605.047866849
1525,116401.601655345
1526,152623.324069706
1527,50121.3617911695
1528,211507.714697278
1529,184610.865960434
1530,159987.243642438
1531,127867.865983753
1532,111416.243595731
1533,315554.671984186
1534,185443.889717408
1535,306994.020020594
1536,140676.659190406
1537,236393.4801711
1538,133898.239245923
1539,110934.729403917
1540,146059.038455973
1541,229775.925939124
1542,287474.774570046
1543,185336.102531574
1544,122402.072916765
1545,150255.242882543
1546,156581.374681764
1547,111003.886086914
1548,209910.986250131
1549,208639.376027507
1550,256514.469622638
1551,80556.4391262003
1552,254725.316461602
1553,131640.502009973
1554,104859.305641166
1555,104003.606464946
1556,239643.784313446
1557,222259.493182757
1558,161648.876582414
1559,74182.1484675712
1560,295326.374239281
1561,180826.211160604
1562,243302.867966141
1563,120494.474259612
1564,314610.474294048
1565,117042.93822297
1566,226845.473886273
1567,187173.916526949
1568,140338.148129557
1569,152159.427432729
1570,211455.762450275
1571,156829.725389706
1572,161780.938765284
1573,252922.478146522
1574,140336.383077971
1575,122903.943675741
1576,204013.713171865
1577,173868.504549646
1578,138205.483487815
1579,64866.7828725597
1580,220802.85405601
1581,156664.135214451
1582,208278.237842408
1583,94777.9812914534
1584,312727.388317275
1585,179691.791990123
1586,199045.662830016
1587,233145.191214968
1588,154638.340102496
1589,335309.664531779
1590,105661.611668551
1591,211387.117628324
1592,117766.226134631
1593,146787.327976101
1594,283336.440135305
1595,109988.718471701
1596,75068.241016056
1597,115884.73983969
1598,250547.096342711
1599,126816.224416076
1600,124410.117369167
1601,212287.89885465
1602,185015.826870363
1603,245267.385459601
1604,228818.277452446
1605,131104.14762462
1606,155240.58032302
1607,94905.1298199753
1608,205184.153998613
1609,277139.92739803
1610,182213.05474836
1611,264406.893415934
1612,79940.977329698
1613,172749.195251149
1614,44369.4598894388
1615,240559.106247466
1616,70702.4185522554
1617,281408.528541755
1618,52725.5552006162
1619,50588.0911153286
1620,124699.974133647
1621,235043.070277866
1622,208751.923698327
1623,260586.642387371
1624,110478.079240514
1625,83900.4253573885
1626,125613.159303194
1627,130323.819346122
1628,193439.157287143
1629,150369.265229712
1630,45270.5468536461
1631,240715.73530676
1632,106186.761853959
1633,103430.808286296
1634,177210.997024598
1635,258770.23423738
1636,177997.617613144
1637,204163.915532558
1638,76060.0753224045
1639,258573.376247471
1640,270966.619964895
1641,229234.978797376
1642,181686.963467228
1643,220689.544193636
1644,182996.805444131
1645,155072.9775924
1646,358647.786415263
1647,241042.100415187
1648,207784.683992146
1649,97575.5817236476
1650,151393.854556024
1651,154386.659797998
1652,321315.252702323
1653,195580.73120608
1654,241865.09600322
1655,103680.657811223
1656,169164.145882529
1657,148444.315842479
1658,216258.046374073
1659,228400.714431668
1660,108473.880595329
1661,158876.603448755
1662,258530.487609248
1663,101505.593684326
1664,192412.503321095
1665,260738.487295952
1666,406914.062016619
1667,247869.858695523
1668,248815.806940919
1669,94280.5192668305
1670,138605.047866849
1671,116401.601655345
1672,152623.324069706
1673,50121.3617911695
1674,211507.714697278
1675,184610.865960434
1676,159987.243642438
1677,127867.865983753
1678,111416.243595731
1679,315554.671984186
1680,185443.889717408
1681,306994.020020594
1682,140676.659190406
1683,236393.4801711
1684,133898.239245923
1685,110934.729403917
1686,146059.038455973
1687,229775.925939124
1688,287474.774570046
1689,185336.102531574
1690,122402.072916765
1691,150255.242882543
1692,156581.374681764
1693,111003.886086914
1694,209910.986250131
1695,208639.376027507
1696,256514.469622638
1697,80556.4391262003
1698,254725.316461602
1699,131640.502009973
1700,104859.305641166
1701,104003.606464946
1702,239643.784313446
1703,222259.493182757
1704,161648.876582414
1705,74182.1484675712
1706,295326.374239281
1707,180826.211160604
1708,243302.867966141
1709,120494.474259612
1710,314610.474294048
1711,117042.93822297
1712,226845.473886273
1713,187173.916526949
1714,140338.148129557
1715,152159.427432729
1716,211455.762450275
1717,156829.725389706
1718,161780.938765284
1719,252922.478146522
1720,140336.383077971
1721,122903.943675741
1722,204013.713171865
1723,173868.504549646
1724,138205.483487815
1725,64866.7828725597
1726,220802.85405601
1727,156664.135214451
1728,208278.237842408
1729,94777.9812914534
1730,312727.388317275
1731,179691.791990123
1732,199045.662830016
1733,233145.191214968
1734,154638.340102496
1735,335309.664531779
1736,105661.611668551
1737,211387.117628324
1738,117766.226134631
1739,146787.327976101
1740,283336.440135305
1741,109988.718471701
1742,75068.241016056
1743,115884.73983969
1744,250547.096342711
1745,126816.224416076
1746,124410.117369167
1747,212287.89885465
1748,185015.826870363
1749,245267.385459601
1750,228818.277452446
1751,131104.14762462
1752,155240.58032302
1753,94905.1298199753
1754,205184.153998613
1755,277139.92739803
1756,182213.05474836
1757,264406.893415934
1758,79940.977329698
1759,172749.195251149
1760,44369.4598894388
1761,240559.106247466
1762,70702.4185522554
1763,281408.528541755
1764,52725.5552006162
1765,50588.0911153286
1766,124699.974133647
1767,235043.070277866
1768,208751.923698327
1769,260586.642387371
1770,110478.079240514
1771,83900.4253573885
1772,125613.159303194
1773,130323.819346122
1774,193439.157287143
1775,150369.265229712
1776,45270.5468536461
1777,240715.73530676
1778,106186.761853959
1779,103430.808286296
1780,177210.997024598
1781,258770.23423738
1782,177997.617613144
1783,204163.915532558
1784,76060.0753224045
1785,258573.376247471
1786,270966.619964895
1787,229234.978797376
1788,181686.963467228
1789,220689.544193636
1790,182996.805444131
1791,155072.9775924
1792,358647.786415263
1793,241042.100415187
1794,207784.683992146
1795,97575.5817236476
1796,151393.854556024
1797,154386.659797998
1798,321315.252702323
1799,195580.73120608
1800,241865.09600322
1801,103680.657811223
1802,169164.145882529
1803,148444.315842479
1804,216258.046374073
1805,228400.714431668
1806,108473.880595329
1807,158876.603448755
1808,258530.487609248
1809,101505.593684326
1810,192412.503321095
1811,260738.487295952
1812,406914.062016619
1813,247869.858695523
1814,248815.806940919
1815,94280.5192668305
1816,138605.047866849
1817,116401.601655345
1818,152623.324069706
1819,50121.3617911695
1820,211507.714697278
1821,184610.865960434
1822,159987.243642438
1823,127867.865983753
1824,111416.243595731
1825,315554.671984186
1826,185443.889717408
1827,306994.020020594
1828,140676.659190406
1829,236393.4801711
1830,133898.239245923
1831,110934.729403917
1832,146059.038455973
1833,229775.925939124
1834,287474.774570046
1835,185336.102531574
1836,122402.072916765
1837,150255.242882543
1838,156581.374681764
1839,111003.886086914
1840,209910.986250131
1841,208639.376027507
1842,256514.469622638
1843,80556.4391262003
1844,254725.316461602
1845,131640.502009973
1846,104859.305641166
1847,104003.606464946
1848,239643.784313446
1849,222259.493182757
1850,161648.876582414
1851,74182.1484675712
1852,295326.374239281
1853,180826.211160604
1854,243302.867966141
1855,120494.474259612
1856,314610.474294048
1857,117042.93822297
1858,226845.473886273
1859,187173.916526949
1860,140338.148129557
1861,152159.427432729
1862,211455.762450275
1863,156829.725389706
1864,161780.938765284
1865,252922.478146522
1866,140336.383077971
1867,122903.943675741
1868,204013.713171865
1869,173868.504549646
1870,138205.483487815
1871,64866.7828725597
1872,220802.85405601
1873,156664.135214451
1874,208278.237842408
1875,94777.9812914534
1876,312727.388317275
1877,179691.791990123
1878,199045.662830016
1879,233145.191214968
1880,154638.340102496
1881,335309.664531779
1882,105661.611668551
1883,211387.117628324
1884,117766.226134631
1885,146787.327976101
1886,283336.440135305
1887,109988.718471701
1888,75068.241016056
1889,115884.73983969
1890,250547.096342711
1891,126816.224416076
1892,124410.117369167
1893,212287.89885465
1894,185015.826870363
1895,245267.385459601
1896,228818.277452446
1897,131104.14762462
1898,155240.58032302
1899,94905.1298199753
1900,205184.153998613
1901,277139.92739803
1902,182213.05474836
1903,264406.893415934
1904,79940.977329698
1905,172749.195251149
1906,44369.4598894388
1907,240559.106247466
1908,70702.4185522554
1909,281408.528541755
1910,52725.5552006162
1911,50588.0911153286
1912,124699.974133647
1913,235043.070277866
1914,208751.923698327
1915,260586.642387371
1916,110478.079240514
1917,83900.4253573885
1918,125613.159303194
1919,130323.819346122
1920,193439.157287143
1921,150369.265229712
1922,45270.5468536461
1923,240715.73530676
1924,106186.761853959
1925,103430.808286296
1926,177210.997024598
1927,258770.23423738
1928,177997.617613144
1929,204163.915532558
1930,76060.0753224045
1931,258573.376247471
1932,270966.619964895
1933,229234.978797376
1934,181686.963467228
1935,220689.544193636
1936,182996.805444131
1937,155072.9775924
1938,358647.786415263
1939,241042.100415187
1940,207784.683992146
1941,97575.5817236476
1942,151393.854556024
1943,154386.659797998
1944,321315.252702323
1945,195580.73120608
1946,241865.09600322
1947,103680.657811223
1948,169164.145882529
1949,148444.315842479
1950,216258.046374073
1951,228400.714431668
1952,108473.880595329
1953,158876.603448755
1954,258530.487609248
1955,101505.593684326
1956,192412.503321095
1957,260738.487295952
1958,406914.062016619
1959,247869.858695523
1960,248815.806940919
1961,94280.5192668305
1962,138605.047866849
1963,116401.601655345
1964,152623.324069706
1965,50121.3617911695
1966,211507.714697278
1967,184610.865960434
1968,159987.243642438
1969,127867.865983753
1970,111416.243595731
1971,315554.671984186
1972,185443.889717408
1973,306994.020020594
1974,140676.659190406
1975,236393.4801711
1976,133898.239245923
1977,110934.729403917
1978,146059.038455973
1979,229775.925939124
1980,287474.774570046
1981,185336.102531574
1982,122402.072916765
1983,150255.242882543
1984,156581.374681764
1985,111003.886086914
1986,209910.986250131
1987,208639.376027507
1988,256514.469622638
1989,80556.4391262003
1990,254725.316461602
1991,131640.502009973
1992,104859.305641166
1993,104003.606464946
1994,239643.784313446
1995,222259.493182757
1996,161648.876582414
1997,74182.1484675712
1998,295326.374239281
1999,180826.211160604
2000,243302.867966141
2001,120494.474259612
2002,314610.474294048
2003,117042.93822297
2004,226845.473886273
2005,187173.916526949
2006,140338.148129557
2007,152159.427432729
2008,211455.762450275
2009,156829.725389706
2010,161780.938765284
2011,252922.478146522
2012,140336.383077971
2013,122903.943675741
2014,204013.713171865
2015,173868.504549646
2016,138205.483487815
2017,64866.7828725597
2018,220802.85405601
2019,156664.135214451
2020,208278.237842408
2021,94777.9812914534
2022,312727.388317275
2023,179691.791990123
2024,199045.662830016
2025,233145.191214968
2026,154638.340102496
2027,335309.664531779
2028,105661.611668551
2029,211387.117628324
2030,117766.226134631
2031,146787.327976101
2032,283336.440135305
2033,109988.718471701
2034,75068.241016056
2035,115884.73983969
2036,250547.096342711
2037,126816.224416076
2038,124410.117369167
2039,212287.89885465
2040,185015.826870363
2041,245267.385459601
2042,228818.277452446
2043,131104.14762462
2044,155240.58032302
2045,94905.1298199753
2046,205184.153998613
2047,277139.92739803
2048,182213.05474836
2049,264406.893415934
2050,79940.977329698
2051,172749.195251149
2052,44369.4598894388
2053,240559.106247466
2054,70702.4185522554
2055,281408.528541755
2056,52725.5552006162
2057,50588.0911153286
2058,124699.974133647
2059,235043.070277866
2060,208751.923698327
2061,260586.642387371
2062,110478.079240514
2063,83900.4253573885
2064,125613.159303194
2065,130323.819346122
2066,193439.157287143
2067,150369.265229712
2068,45270.5468536461
2069,240715.73530676
2070,106186.761853959
2071,103430.808286296
2072,177210.997024598
2073,258770.23423738
2074,177997.617613144
2075,204163.915532558
2076,76060.0753224045
2077,258573.376247471
2078,270966.619964895
2079,229234.978797376
2080,181686.963467228
2081,220689.544193636
2082,182996.805444131
2083,155072.9775924
2084,358647.786415263
2085,241042.100415187
2086,207784.683992146
2087,97575.5817236476
2088,151393.854556024
2089,154386.659797998
2090,321315.252702323
2091,195580.73120608
2092,241865.09600322
2093,103680.657811223
2094,169164.145882529
2095,148444.315842479
2096,216258.046374073
2097,228400.714431668
2098,108473.880595329
2099,158876.603448755
2100,258530.487609248
2101,101505.593684326
2102,192412.503321095
2103,260738.487295952
2104,406914.062016619
2105,247869.858695523
2106,248815.806940919
2107,94280.5192668305
2108,138605.047866849
2109,116401.601655345
2110,152623.324069706
2111,50121.3617911695
2112,211507.714697278
2113,184610.865960434
2114,159987.243642438
2115,127867.865983753
2116,111416.243595731
2117,315554.671984186
2118,185443.889717408
2119,306994.020020594
2120,140676.659190406
2121,236393.4801711
2122,133898.239245923
2123,110934.729403917
2124,146059.038455973
2125,229775.925939124
2126,287474.774570046
2127,185336.102531574
2128,122402.072916765
2129,150255.242882543
2130,156581.374681764
2131,111003.886086914
2132,209910.986250131
2133,208639.376027507
2134,256514.469622638
2135,80556.4391262003
2136,254725.316461602
2137,131640.502009973
2138,104859.305641166
2139,104003.606464946
2140,239643.784313446
2141,222259.493182757
2142,161648.876582414
2143,74182.1484675712
2144,295326.374239281
2145,180826.211160604
2146,243302.867966141
2147,120494.474259612
2148,314610.474294048
2149,117042.93822297
2150,226845.473886273
2151,187173.916526949
2152,140338.148129557
2153,152159.427432729
2154,211455.762450275
2155,156829.725389706
2156,161780.938765284
2157,252922.478146522
2158,140336.383077971
2159,122903.943675741
2160,204013.713171865
2161,173868.504549646
2162,138205.483487815
2163,64866.7828725597
2164,220802.85405601
2165,156664.135214451
2166,208278.237842408
2167,94777.9812914534
2168,312727.388317275
2169,179691.791990123
2170,199045.662830016
2171,233145.191214968
2172,154638.340102496
2173,335309.664531779
2174,105661.611668551
2175,211387.117628324
2176,117766.226134631
2177,146787.327976101
2178,283336.440135305
2179,109988.718471701
2180,75068.241016056
2181,115884.73983969
2182,250547.096342711
2183,126816.224416076
2184,124410.117369167
2185,212287.89885465
2186,185015.826870363
2187,245267.385459601
2188,228818.277452446
2189,131104.14762462
2190,155240.58032302
2191,94905.1298199753
2192,205184.153998613
2193,277139.92739803
2194,182213.05474836
2195,264406.893415934
2196,79940.977329698
2197,172749.195251149
2198,44369.4598894388
2199,240559.106247466
2200,70702.4185522554
2201,281408.528541755
2202,52725.5552006162
2203,50588.0911153286
2204,124699.974133647
2205,235043.070277866
2206,208751.923698327
2207,260586.642387371
2208,110478.079240514
2209,83900.4253573885
2210,125613.159303194
2211,130323.819346122
2212,193439.157287143
2213,150369.265229712
2214,45270.5468536461
2215,240715.73530676
2216,106186.761853959
2217,103430.808286296
2218,177210.997024598
2219,258770.23423738
2220,177997.617613144
2221,204163.915532558
2222,76060.0753224045
2223,258573.376247471
2224,270966.619964895
2225,229234.978797376
2226,181686.963467228
2227,220689.544193636
2228,182996.805444131
2229,155072.9775924
2230,358647.786415263
2231,241042.100415187
2232,207784.683992146
2233,97575.5817236476
2234,151393.854556024
2235,154386.659797998
2236,321315.252702323
2237,195580.73120608
2238,241865.09600322
2239,103680.657811223
2240,169164.145882529
2241,148444.315842479
2242,216258.046374073
2243,228400.714431668
2244,108473.880595329
2245,158876.603448755
2246,258530.487609248
2247,101505.593684326
2248,192412.503321095
2249,260738.487295952
2250,406914.062016619
2251,247869.858695523
2252,248815.806940919
2253,94280.5192668305
2254,138605.047866849
2255,116401.601655345
2256,152623.324069706
2257,50121.3617911695
2258,211507.714697278
2259,184610.865960434
2260,159987.243642438
2261,127867.865983753
2262,111416.243595731
2263,315554.671984186
2264,185443.889717408
2265,306994.020020594
2266,140676.659190406
2267,236393.4801711
2268,133898.239245923
2269,110934.729403917
2270,146059.038455973
2271,229775.925939124
2272,287474.774570046
2273,185336.102531574
2274,122402.072916765
2275,150255.242882543
2276,156581.374681764
2277,111003.886086914
2278,209910.986250131
2279,208639.376027507
2280,256514.469622638
2281,80556.4391262003
2282,254725.316461602
2283,131640.502009973
2284,104859.305641166
2285,104003.606464946
2286,239643.784313446
2287,222259.493182757
2288,161648.876582414
2289,74182.1484675712
2290,295326.374239281
2291,180826.211160604
2292,243302.867966141
2293,120494.474259612
2294,314610.474294048
2295,117042.93822297
2296,226845.473886273
2297,187173.916526949
2298,140338.148129557
2299,152159.427432729
2300,211455.762450275
2301,156829.725389706
2302,161780.938765284
2303,252922.478146522
2304,140336.383077971
2305,122903.943675741
2306,204013.713171865
2307,173868.504549646
2308,138205.483487815
2309,64866.7828725597
2310,220802.85405601
2311,156664.135214451
2312,208278.237842408
2313,94777.9812914534
2314,312727.388317275
2315,179691.791990123
2316,199045.662830016
2317,233145.191214968
2318,154638.340102496
2319,335309.664531779
2320,105661.611668551
2321,211387.117628324
2322,117766.226134631
2323,146787.327976101
2324,283336.440135305
2325,109988.718471701
2326,75068.241016056
2327,115884.73983969
2328,250547.096342711
2329,126816.224416076
2330,124410.117369167
2331,212287.89885465
2332,185015.826870363
2333,245267.385459601
2334,228818.277452446
2335,131104.14762462
2336,155240.58032302
2337,94905.1298199753
2338,205184.153998613
2339,277139.92739803
2340,182213.05474836
2341,264406.893415934
2342,79940.977329698
2343,172749.195251149
2344,44369.4598894388
2345,240559.106247466
2346,70702.4185522554
2347,281408.528541755
2348,52725.5552006162
2349,50588.0911153286
2350,124699.974133647
2351,235043.070277866
2352,208751.923698327
2353,260586.642387371
2354,110478.079240514
2355,83900.4253573885
2356,125613.159303194
2357,130323.819346122
2358,193439.157287143
2359,150369.265229712
2360,45270.5468536461
2361,240715.73530676
2362,106186.761853959
2363,103430.808286296
2364,177210.997024598
2365,258770.23423738
2366,177997.617613144
2367,204163.915532558
2368,76060.0753224045
2369,258573.376247471
2370,270966.619964895
2371,229234.978797376
2372,181686.963467228
2373,220689.544193636
2374,182996.805444131
2375,155072.9775924
2376,358647.786415263
2377,241042.100415187
2378,207784.683992146
2379,97575.5817236476
2380,151393.854556024
2381,154386.659797998
2382,321315.252702323
2383,195580.73120608
2384,241865.09600322
2385,103680.657811223
2386,169164.145882529
2387,148444.315842479
2388,216258.046374073
2389,228400.714431668
2390,108473.880595329
2391,158876.603448755
2392,258530.487609248
2393,101505.593684326
2394,192412.503321095
2395,260738.487295952
2396,406914.062016619
2397,247869.858695523
2398,248815.806940919
2399,94280.5192668305
2400,138605.047866849
2401,116401.601655345
2402,152623.324069706
2403,50121.3617911695
2404,211507.714697278
2405,184610.865960434
2406,159987.243642438
2407,127867.865983753
2408,111416.243595731
2409,315554.671984186
2410,185443.889717408
2411,306994.020020594
2412,140676.659190406
2413,236393.4801711
2414,133898.239245923
2415,110934.729403917
2416,146059.038455973
2417,229775.925939124
2418,287474.774570046
2419,185336.102531574
2420,122402.072916765
2421,150255.242882543
2422,156581.374681764
2423,111003.886086914
2424,209910.986250131
2425,208639.376027507
2426,256514.469622638
2427,80556.4391262003
2428,254725.316461602
2429,131640.502009973
2430,104859.305641166
2431,104003.606464946
2432,239643.784313446
2433,222259.493182757
2434,161648.876582414
2435,74182.1484675712
2436,295326.374239281
2437,180826.211160604
2438,243302.867966141
2439,120494.474259612
2440,314610.474294048
2441,117042.93822297
2442,226845.473886273
2443,187173.916526949
2444,140338.148129557
2445,152159.427432729
2446,211455.762450275
2447,156829.725389706
2448,161780.938765284
2449,252922.478146522
2450,140336.383077971
2451,122903.943675741
2452,204013.713171865
2453,173868.504549646
2454,138205.483487815
2455,64866.7828725597
2456,220802.85405601
2457,156664.135214451
2458,208278.237842408
2459,94777.9812914534
2460,312727.388317275
2461,179691.791990123
2462,199045.662830016
2463,233145.191214968
2464,154638.340102496
2465,335309.664531779
2466,105661.611668551
2467,211387.117628324
2468,117766.226134631
2469,146787.327976101
2470,283336.440135305
2471,109988.718471701
2472,75068.241016056
2473,115884.73983969
2474,250547.096342711
2475,126816.224416076
2476,124410.117369167
2477,212287.89885465
2478,185015.826870363
2479,245267.385459601
2480,228818.277452446
2481,131104.14762462
2482,155240.58032302
2483,94905.1298199753
2484,205184.153998613
2485,277139.92739803
2486,182213.05474836
2487,264406.893415934
2488,79940.977329698
2489,172749.195251149
2490,44369.4598894388
2491,240559.106247466
2492,70702.4185522554
2493,281408.528541755
2494,52725.5552006162
2495,50588.0911153286
2496,124699.974133647
2497,235043.070277866
2498,208751.923698327
2499,260586.642387371
2500,110478.079240514
2501,83900.4253573885
2502,125613.159303194
2503,130323.819346122
2504,193439.157287143
2505,150369.265229712
2506,45270.5468536461
2507,240715.73530676
2508,106186.761853959
2509,103430.808286296
2510,177210.997024598
2511,258770.23423738
2512,177997.617613144
2513,204163.915532558
2514,76060.0753224045
2515,258573.376247471
2516,270966.619964895
2517,229234.978797376
2518,181686.963467228
2519,220689.544193636
2520,182996.805444131
2521,155072.9775924
2522,358647.786415263
2523,241042.100415187
2524,207784.683992146
2525,97575.5817236476
2526,151393.854556024
2527,154386.659797998
2528,321315.252702323
2529,195580.73120608
2530,241865.09600322
2531,103680.657811223
2532,169164.145882529
2533,148444.315842479
2534,216258.046374073
2535,228400.714431668
2536,108473.880595329
2537,158876.603448755
2538,258530.487609248
2539,101505.593684326
2540,192412.503321095
2541,260738.487295952
2542,406914.062016619
2543,247869.858695523
2544,248815.806940919
2545,94280.5192668305
2546,138605.047866849
2547,116401.601655345
2548,152623.324069706
2549,50121.3617911695
2550,211507.714697278
2551,184610.865960434
2552,159987.243642438
2553,127867.865983753
2554,111416.243595731
2555,315554.671984186
2556,185443.889717408
2557,306994.020020594
2558,140676.659190406
2559,236393.4801711
2560,133898.239245923
2561,110934.729403917
2562,146059.038455973
2563,229775.925939124
2564,287474.774570046
2565,185336.102531574
2566,122402.072916765
2567,150255.242882543
2568,156581.374681764
2569,111003.886086914
2570,209910.986250131
2571,208639.376027507
2572,256514.469622638
2573,80556.4391262003
2574,254725.316461602
2575,131640.502009973
2576,104859.305641166
2577,104003.606464946
2578,239643.784313446
2579,222259.493182757
2580,161648.876582414
2581,74182.1484675712
2582,295326.374239281
2583,180826.211160604
2584,243302.867966141
2585,120494.474259612
2586,314610.474294048
2587,117042.93822297
2588,226845.473886273
2589,187173.916526949
2590,140338.148129557
2591,152159.427432729
2592,211455.762450275
2593,156829.725389706
2594,161780.938765284
2595,252922.478146522
2596,140336.383077971
2597,122903.943675741
2598,204013.713171865
2599,173868.504549646
2600,138205.483487815
2601,64866.7828725597
2602,220802.85405601
2603,156664.135214451
2604,208278.237842408
2605,94777.9812914534
2606,312727.388317275
2607,179691.791990123
2608,199045.662830016
2609,233145.191214968
2610,154638.340102496
2611,335309.664531779
2612,105661.611668551
2613,211387.117628324
2614,117766.226134631
2615,146787.327976101
2616,283336.440135305
2617,109988.718471701
2618,75068.241016056
2619,115884.73983969
2620,250547.096342711
2621,126816.224416076
2622,124410.117369167
2623,212287.89885465
2624,185015.826870363
2625,245267.385459601
2626,228818.277452446
2627,131104.14762462
2628,155240.58032302
2629,94905.1298199753
2630,205184.153998613
2631,277139.92739803
2632,182213.05474836
2633,264406.893415934
2634,79940.977329698
2635,172749.195251149
2636,44369.4598894388
2637,240559.106247466
2638,70702.4185522554
2639,281408.528541755
2640,52725.5552006162
2641,50588.0911153286
2642,124699.974133647
2643,235043.070277866
2644,208751.923698327
2645,260586.642387371
2646,110478.079240514
2647,83900.4253573885
2648,125613.159303194
2649,130323.819346122
2650,193439.157287143
2651,150369.265229712
2652,45270.5468536461
2653,240715.73530676
2654,106186.761853959
2655,103430.808286296
2656,177210.997024598
2657,258770.23423738
2658,177997.617613144
2659,204163.915532558
2660,76060.0753224045
2661,258573.376247471
2662,270966.619964895
2663,229234.978797376
2664,181686.963467228
2665,220689.544193636
2666,182996.805444131
2667,155072.9775924
2668,358647.786415263
2669,241042.100415187
2670,207784.683992146
2671,97575.5817236476
2672,151393.854556024
2673,154386.659797998
2674,321315.252702323
2675,195580.73120608
2676,241865.09600322
2677,103680.657811223
2678,169164.145882529
2679,148444.315842479
2680,216258.046374073
2681,228400.714431668
2682,108473.880595329
2683,158876.603448755
2684,258530.487609248
2685,101505.593684326
2686,192412.503321095
2687,260738.487295952
2688,406914.062016619
2689,247869.858695523
2690,248815.806940919
2691,94280.5192668305
2692,138605.047866849
2693,116401.601655345
2694,152623.324069706
2695,50121.3617911695
2696,211507.714697278
2697,184610.865960434
2698,159987.243642438
2699,127867.865983753
2700,111416.243595731
2701,315554.671984186
2702,185443.889717408
2703,306994.020020594
2704,140676.659190406
2705,236393.4801711
2706,133898.239245923
2707,110934.729403917
2708,146059.038455973
2709,229775.925939124
2710,287474.774570046
2711,185336.102531574
2712,122402.072916765
2713,150255.242882543
2714,156581.374681764
2715,111003.886086914
2716,209910.986250131
2717,208639.376027507
2718,256514.469622638
2719,80556.4391262003
2720,254725.316461602
2721,131640.502009973
2722,104859.305641166
2723,104003.606464946
2724,239643.784313446
2725,222259.493182757
2726,161648.876582414
2727,74182.1484675712
2728,295326.374239281
2729,180826.211160604
2730,243302.867966141
2731,120494.474259612
2732,314610.474294048
2733,117042.93822297
2734,226845.473886273
2735,187173.916526949
2736,140338.148129557
2737,152159.427432729
2738,211455.762450275
2739,156829.725389706
2740,161780.938765284
2741,252922.478146522
2742,140336.383077971
2743,122903.943675741
2744,204013.713171865
2745,173868.504549646
2746,138205.483487815
2747,64866.7828725597
2748,220802.85405601
2749,156664.135214451
2750,208278.237842408
2751,94777.9812914534
2752,312727.388317275
2753,179691.791990123
2754,199045.662830016
2755,233145.191214968
2756,154638.340102496
2757,335309.664531779
2758,105661.611668551
2759,211387.117628324
2760,117766.226134631
2761,146787.327976101
2762,283336.440135305
2763,109988.718471701
2764,75068.241016056
2765,115884.73983969
2766,250547.096342711
2767,126816.224416076
2768,124410.117369167
2769,212287.89885465
2770,185015.826870363
2771,245267.385459601
2772,228818.277452446
2773,131104.14762462
2774,155240.58032302
2775,94905.1298199753
2776,205184.153998613
2777,277139.92739803
2778,182213.05474836
2779,264406.893415934
2780,79940.977329698
2781,172749.195251149
2782,44369.4598894388
2783,240559.106247466
2784,70702.4185522554
2785,281408.528541755
2786,52725.5552006162
2787,50588.0911153286
2788,124699.974133647
2789,235043.070277866
2790,208751.923698327
2791,260586.642387371
2792,110478.079240514
2793,83900.4253573885
2794,125613.159303194
2795,130323.819346122
2796,193439.157287143
2797,150369.265229712
2798,45270.5468536461
2799,240715.73530676
2800,106186.761853959
2801,103430.808286296
2802,177210.997024598
2803,258770.23423738
2804,177997.617613144
2805,204163.915532558
2806,76060.0753224045
2807,258573.376247471
2808,270966.619964895
2809,229234.978797376
2810,181686.963467228
2811,220689.544193636
2812,182996.805444131
2813,155072.9775924
2814,358647.786415263
2815,241042.100415187
2816,207784.683992146
2817,97575.5817236476
2818,151393.854556024
2819,154386.659797998
2820,321315.252702323
2821,195580.73120608
2822,241865.09600322
2823,103680.657811223
2824,169164.145882529
2825,148444.315842479
2826,216258.046374073
2827,228400.714431668
2828,108473.880595329
2829,158876.603448755
2830,258530.487609248
2831,101505.593684326
2832,192412.503321095
2833,260738.487295952
2834,406914.062016619
2835,247869.858695523
2836,248815.806940919
2837,94280.5192668305
2838,138605.047866849
2839,116401.601655345
2840,152623.324069706
2841,50121.3617911695
2842,211507.714697278
2843,184610.865960434
2844,159987.243642438
2845,127867.865983753
2846,111416.243595731
2847,315554.671984186
2848,185443.889717408
2849,306994.020020594
2850,140676.659190406
2851,236393.4801711
2852,133898.239245923
2853,110934.729403917
2854,146059.038455973
2855,229775.925939124
2856,287474.774570046
2857,185336.102531574
2858,122402.072916765
2859,150255.242882543
2860,156581.374681764
2861,111003.886086914
2862,209910.986250131
2863,208639.376027507
2864,256514.469622638
2865,80556.4391262003
2866,254725.316461602
2867,131640.502009973
2868,104859.305641166
2869,104003.606464946
2870,239643.784313446
2871,222259.493182757
2872,161648.876582414
2873,74182.1484675712
2874,295326.374239281
2875,180826.211160604
2876,243302.867966141
2877,120494.474259612
2878,314610.474294048
2879,117042.93822297
2880,226845.473886273
2881,187173.916526949
2882,140338.148129557
2883,152159.427432729
2884,211455.762450275
2885,156829.725389706
2886,161780.938765284
2887,252922.478146522
2888,140336.383077971
2889,122903.943675741
2890,204013.713171865
2891,173868.504549646
2892,138205.483487815
2893,64866.7828725597
2894,220802.85405601
2895,156664.135214451
2896,208278.237842408
2897,94777.9812914534
2898,312727.388317275
2899,179691.791990123
2900,199045.662830016
2901,233145.191214968
2902,154638.340102496
2903,335309.664531779
2904,105661.611668551
2905,211387.117628324
2906,117766.226134631
2907,146787.327976101
2908,283336.440135305
2909,109988.718471701
2910,75068.241016056
2911,115884.73983969
2912,250547.096342711
2913,126816.224416076
2914,124410.117369167
2915,212287.89885465
2916,185015.826870363
2917,245267.385459601
2918,228818.277452446
2919,131104.14762462
