feature selection using mrmr

[1] "#Features:  1  ; CV error= 0.5646  ; std dev= 0.0741" 
 [2] "#Features:  2  ; CV error= 0.5662  ; std dev= 0.0734" 
 [3] "#Features:  3  ; CV error= 0.5255  ; std dev= 0.0682" 
 [4] "#Features:  4  ; CV error= 0.4394  ; std dev= 0.1158" 
 [5] "#Features:  5  ; CV error= 0.4394  ; std dev= 0.1326" 
 [6] "#Features:  6  ; CV error= 0.4046  ; std dev= 0.0895" 
 [7] "#Features:  7  ; CV error= 0.3989  ; std dev= 0.0948" 
 [8] "#Features:  8  ; CV error= 0.4017  ; std dev= 0.1093" 
 [9] "#Features:  9  ; CV error= 0.3961  ; std dev= 0.1294" 
[10] "#Features:  10  ; CV error= 0.3814  ; std dev= 0.0746"
[11] "#Features:  11  ; CV error= 0.3894  ; std dev= 0.0932"
[12] "#Features:  12  ; CV error= 0.4075  ; std dev= 0.1118"
[13] "#Features:  13  ; CV error= 0.3899  ; std dev= 0.083" 
[14] "#Features:  14  ; CV error= 0.3866  ; std dev= 0.0891"
[15] "#Features:  15  ; CV error= 0.3918  ; std dev= 0.101" 
[16] "#Features:  16  ; CV error= 0.4072  ; std dev= 0.0963"
[17] "#Features:  17  ; CV error= 0.3828  ; std dev= 0.1025"
[18] "#Features:  18  ; CV error= 0.3868  ; std dev= 0.1004"
[19] "#Features:  19  ; CV error= 0.4043  ; std dev= 0.1305"
[20] "#Features:  20  ; CV error= 0.3752  ; std dev= 0.1147"
[21] "#Features:  21  ; CV error= 0.3795  ; std dev= 0.1034"
[22] "#Features:  22  ; CV error= 0.3819  ; std dev= 0.1035"
[23] "#Features:  23  ; CV error= 0.3869  ; std dev= 0.1037"
[24] "#Features:  24  ; CV error= 0.3524  ; std dev= 0.092" 
[25] "#Features:  25  ; CV error= 0.3739  ; std dev= 0.1131"
[26] "#Features:  26  ; CV error= 0.3664  ; std dev= 0.118" 
[27] "#Features:  27  ; CV error= 0.3824  ; std dev= 0.1221"
[28] "#Features:  28  ; CV error= 0.374  ; std dev= 0.0971" 
[29] "#Features:  29  ; CV error= 0.3864  ; std dev= 0.132" 
[30] "#Features:  30  ; CV error= 0.3845  ; std dev= 0.0938"
[31] "#Features:  31  ; CV error= 0.3906  ; std dev= 0.1212"
[32] "#Features:  32  ; CV error= 0.3742  ; std dev= 0.1227"
[33] "#Features:  33  ; CV error= 0.3792  ; std dev= 0.0936"
[34] "#Features:  34  ; CV error= 0.3886  ; std dev= 0.093" 
[35] "#Features:  35  ; CV error= 0.3871  ; std dev= 0.1133"
[36] "#Features:  36  ; CV error= 0.4013  ; std dev= 0.1214"
[37] "#Features:  37  ; CV error= 0.4095  ; std dev= 0.1021"